<?xml version="1.0" encoding="UTF-8"?>
<svg width="185px" height="240px" viewBox="0 0 185 240" version="1.1" xmlns="http://www.w3.org/2000/svg" xmlns:xlink="http://www.w3.org/1999/xlink">
    <!-- Generator: Sketch 51.2 (57519) - http://www.bohemiancoding.com/sketch -->
    <title>calendario-1902</title>
    <desc>Created with Sketch.</desc>
    <defs>
        <polygon id="path-1" points="0 1191 841.89 1191 841.89 0.449 0 0.449"></polygon>
        <polygon id="path-3" points="0 1191 841.89 1191 841.89 0.449 0 0.449"></polygon>
        <polygon id="path-5" points="0 1191 841.89 1191 841.89 0.449 0 0.449"></polygon>
        <polygon id="path-7" points="0 1191 841.89 1191 841.89 0.449 0 0.449"></polygon>
        <polygon id="path-9" points="0 1191 841.89 1191 841.89 0.449 0 0.449"></polygon>
        <polygon id="path-11" points="0 1191 841.89 1191 841.89 0.449 0 0.449"></polygon>
        <polygon id="path-13" points="0 1191 841.89 1191 841.89 0.449 0 0.449"></polygon>
        <polygon id="path-15" points="0 1191 841.89 1191 841.89 0.449 0 0.449"></polygon>
    </defs>
    <g id="calendario-1902" stroke="none" stroke-width="1" fill="none" fill-rule="evenodd">
        <g id="www-calendario-copy-4" transform="translate(-328.500000, -481.000000)">
            <g id="Group-200" transform="translate(0.000000, 0.550000)">
                <mask id="mask-2" fill="white">
                    <use xlink:href="#path-1"></use>
                </mask>
                <g id="Clip-102"></g>
            </g>
            <g id="Group-302" transform="translate(0.000000, 0.550000)">
                <mask id="mask-4" fill="white">
                    <use xlink:href="#path-3"></use>
                </mask>
                <g id="Clip-204"></g>
            </g>
            <g id="Group-404" transform="translate(0.000000, 0.550000)">
                <mask id="mask-6" fill="white">
                    <use xlink:href="#path-5"></use>
                </mask>
                <g id="Clip-306"></g>
            </g>
            <g id="Group-506" transform="translate(0.000000, 0.550000)">
                <mask id="mask-8" fill="white">
                    <use xlink:href="#path-7"></use>
                </mask>
                <g id="Clip-408"></g>
                <path d="M360.229,526.538 L390.843,526.538 L390.843,499.042 L360.229,499.042 L360.229,526.538 Z M390.843,526.538 L421.457,526.538 L421.457,499.042 L390.843,499.042 L390.843,526.538 Z M421.457,526.538 L452.071,526.538 L452.071,499.042 L421.457,499.042 L421.457,526.538 Z M452.07,526.538 L482.684,526.538 L482.684,499.042 L452.07,499.042 L452.07,526.538 Z M360.229,554.034 L390.843,554.034 L390.843,526.538 L360.229,526.538 L360.229,554.034 Z M390.843,554.034 L421.457,554.034 L421.457,526.538 L390.843,526.538 L390.843,554.034 Z M421.457,554.034 L452.071,554.034 L452.071,526.538 L421.457,526.538 L421.457,554.034 Z M452.07,554.034 L482.684,554.034 L482.684,526.538 L452.07,526.538 L452.07,554.034 Z M360.229,581.53 L390.843,581.53 L390.843,554.034 L360.229,554.034 L360.229,581.53 Z M390.843,581.53 L421.457,581.53 L421.457,554.034 L390.843,554.034 L390.843,581.53 Z M421.457,581.53 L452.071,581.53 L452.071,554.034 L421.457,554.034 L421.457,581.53 Z M452.07,581.53 L482.684,581.53 L482.684,554.034 L452.07,554.034 L452.07,581.53 Z M360.229,609.026 L390.843,609.026 L390.843,581.53 L360.229,581.53 L360.229,609.026 Z M390.843,609.026 L421.457,609.026 L421.457,581.53 L390.843,581.53 L390.843,609.026 Z M421.457,609.026 L452.071,609.026 L452.071,581.53 L421.457,581.53 L421.457,609.026 Z M452.07,609.026 L482.684,609.026 L482.684,581.53 L452.07,581.53 L452.07,609.026 Z M329.615,664.02 L360.229,664.02 L360.229,636.524 L329.615,636.524 L329.615,664.02 Z M360.229,664.02 L390.843,664.02 L390.843,636.524 L360.229,636.524 L360.229,664.02 Z M390.843,664.02 L421.457,664.02 L421.457,636.524 L390.843,636.524 L390.843,664.02 Z M421.457,664.02 L452.071,664.02 L452.071,636.524 L421.457,636.524 L421.457,664.02 Z" id="Fill-407" fill="#E49F24" mask="url(#mask-8)"></path>
                <path d="M329.3647,499.0425 L360.2287,499.0425" id="Stroke-409" stroke="#231F20" stroke-width="0.25" mask="url(#mask-8)"></path>
                <path d="M329.6147,526.2886 L329.6147,499.2926" id="Stroke-410" stroke="#231F20" stroke-width="0.25" mask="url(#mask-8)"></path>
                <path d="M360.229,499.0425 L390.843,499.0425" id="Stroke-411" stroke="#231F20" stroke-width="0.25" mask="url(#mask-8)"></path>
                <path d="M360.229,526.2886 L360.229,499.2926" id="Stroke-412" stroke="#231F20" stroke-width="0.25" mask="url(#mask-8)"></path>
                <path d="M390.8433,499.0425 L421.4573,499.0425" id="Stroke-413" stroke="#231F20" stroke-width="0.25" mask="url(#mask-8)"></path>
                <path d="M390.8433,526.2886 L390.8433,499.2926" id="Stroke-414" stroke="#231F20" stroke-width="0.25" mask="url(#mask-8)"></path>
                <path d="M421.4575,499.0425 L452.0715,499.0425" id="Stroke-415" stroke="#231F20" stroke-width="0.25" mask="url(#mask-8)"></path>
                <path d="M421.4575,526.2886 L421.4575,499.2926" id="Stroke-416" stroke="#231F20" stroke-width="0.25" mask="url(#mask-8)"></path>
                <path d="M452.0713,499.0425 L482.6853,499.0425" id="Stroke-417" stroke="#231F20" stroke-width="0.25" mask="url(#mask-8)"></path>
                <path d="M452.0713,526.2886 L452.0713,499.2926" id="Stroke-418" stroke="#231F20" stroke-width="0.25" mask="url(#mask-8)"></path>
                <path d="M482.6855,499.0425 L513.5495,499.0425" id="Stroke-419" stroke="#231F20" stroke-width="0.25" mask="url(#mask-8)"></path>
                <path d="M482.6855,526.2886 L482.6855,499.2926" id="Stroke-420" stroke="#231F20" stroke-width="0.25" mask="url(#mask-8)"></path>
                <path d="M513.2998,526.2886 L513.2998,499.2926" id="Stroke-421" stroke="#231F20" stroke-width="0.25" mask="url(#mask-8)"></path>
                <path d="M329.3647,526.5386 L360.2287,526.5386" id="Stroke-422" stroke="#231F20" stroke-width="0.25" mask="url(#mask-8)"></path>
                <path d="M329.6147,553.7847 L329.6147,526.7887" id="Stroke-423" stroke="#231F20" stroke-width="0.25" mask="url(#mask-8)"></path>
                <path d="M360.229,526.5386 L390.843,526.5386" id="Stroke-424" stroke="#231F20" stroke-width="0.25" mask="url(#mask-8)"></path>
                <path d="M360.229,553.7847 L360.229,526.7887" id="Stroke-425" stroke="#231F20" stroke-width="0.25" mask="url(#mask-8)"></path>
                <path d="M390.8433,526.5386 L421.4573,526.5386" id="Stroke-426" stroke="#231F20" stroke-width="0.25" mask="url(#mask-8)"></path>
                <path d="M390.8433,553.7847 L390.8433,526.7887" id="Stroke-427" stroke="#231F20" stroke-width="0.25" mask="url(#mask-8)"></path>
                <path d="M421.4575,526.5386 L452.0715,526.5386" id="Stroke-428" stroke="#231F20" stroke-width="0.25" mask="url(#mask-8)"></path>
                <path d="M421.4575,553.7847 L421.4575,526.7887" id="Stroke-429" stroke="#231F20" stroke-width="0.25" mask="url(#mask-8)"></path>
                <path d="M452.0713,526.5386 L482.6853,526.5386" id="Stroke-430" stroke="#231F20" stroke-width="0.25" mask="url(#mask-8)"></path>
                <path d="M452.0713,553.7847 L452.0713,526.7887" id="Stroke-431" stroke="#231F20" stroke-width="0.25" mask="url(#mask-8)"></path>
                <path d="M482.6855,526.5386 L513.5495,526.5386" id="Stroke-432" stroke="#231F20" stroke-width="0.25" mask="url(#mask-8)"></path>
                <path d="M482.6855,553.7847 L482.6855,526.7887" id="Stroke-433" stroke="#231F20" stroke-width="0.25" mask="url(#mask-8)"></path>
                <path d="M513.2998,553.7847 L513.2998,526.7887" id="Stroke-434" stroke="#231F20" stroke-width="0.25" mask="url(#mask-8)"></path>
                <path d="M329.3647,554.0347 L360.2287,554.0347" id="Stroke-435" stroke="#231F20" stroke-width="0.25" mask="url(#mask-8)"></path>
                <path d="M329.6147,581.2808 L329.6147,554.2848" id="Stroke-436" stroke="#231F20" stroke-width="0.25" mask="url(#mask-8)"></path>
                <path d="M360.229,554.0347 L390.843,554.0347" id="Stroke-437" stroke="#231F20" stroke-width="0.25" mask="url(#mask-8)"></path>
                <path d="M360.229,581.2808 L360.229,554.2848" id="Stroke-438" stroke="#231F20" stroke-width="0.25" mask="url(#mask-8)"></path>
                <path d="M390.8433,554.0347 L421.4573,554.0347" id="Stroke-439" stroke="#231F20" stroke-width="0.25" mask="url(#mask-8)"></path>
                <path d="M390.8433,581.2808 L390.8433,554.2848" id="Stroke-440" stroke="#231F20" stroke-width="0.25" mask="url(#mask-8)"></path>
                <path d="M421.4575,554.0347 L452.0715,554.0347" id="Stroke-441" stroke="#231F20" stroke-width="0.25" mask="url(#mask-8)"></path>
                <path d="M421.4575,581.2808 L421.4575,554.2848" id="Stroke-442" stroke="#231F20" stroke-width="0.25" mask="url(#mask-8)"></path>
                <path d="M452.0713,554.0347 L482.6853,554.0347" id="Stroke-443" stroke="#231F20" stroke-width="0.25" mask="url(#mask-8)"></path>
                <path d="M452.0713,581.2808 L452.0713,554.2848" id="Stroke-444" stroke="#231F20" stroke-width="0.25" mask="url(#mask-8)"></path>
                <path d="M482.6855,554.0347 L513.5495,554.0347" id="Stroke-445" stroke="#231F20" stroke-width="0.25" mask="url(#mask-8)"></path>
                <path d="M482.6855,581.2808 L482.6855,554.2848" id="Stroke-446" stroke="#231F20" stroke-width="0.25" mask="url(#mask-8)"></path>
                <path d="M513.2998,581.2808 L513.2998,554.2848" id="Stroke-447" stroke="#231F20" stroke-width="0.25" mask="url(#mask-8)"></path>
                <path d="M329.3647,581.5308 L360.2287,581.5308" id="Stroke-448" stroke="#231F20" stroke-width="0.25" mask="url(#mask-8)"></path>
                <path d="M329.6147,608.7769 L329.6147,581.7809" id="Stroke-449" stroke="#231F20" stroke-width="0.25" mask="url(#mask-8)"></path>
                <path d="M360.229,581.5308 L390.843,581.5308" id="Stroke-450" stroke="#231F20" stroke-width="0.25" mask="url(#mask-8)"></path>
                <path d="M360.229,608.7769 L360.229,581.7809" id="Stroke-451" stroke="#231F20" stroke-width="0.25" mask="url(#mask-8)"></path>
                <path d="M390.8433,581.5308 L421.4573,581.5308" id="Stroke-452" stroke="#231F20" stroke-width="0.25" mask="url(#mask-8)"></path>
                <path d="M390.8433,608.7769 L390.8433,581.7809" id="Stroke-453" stroke="#231F20" stroke-width="0.25" mask="url(#mask-8)"></path>
                <path d="M421.4575,581.5308 L452.0715,581.5308" id="Stroke-454" stroke="#231F20" stroke-width="0.25" mask="url(#mask-8)"></path>
                <path d="M421.4575,608.7769 L421.4575,581.7809" id="Stroke-455" stroke="#231F20" stroke-width="0.25" mask="url(#mask-8)"></path>
                <path d="M452.0713,581.5308 L482.6853,581.5308" id="Stroke-456" stroke="#231F20" stroke-width="0.25" mask="url(#mask-8)"></path>
                <path d="M452.0713,608.7769 L452.0713,581.7809" id="Stroke-457" stroke="#231F20" stroke-width="0.25" mask="url(#mask-8)"></path>
                <path d="M482.6855,581.5308 L513.5495,581.5308" id="Stroke-458" stroke="#231F20" stroke-width="0.25" mask="url(#mask-8)"></path>
                <path d="M482.6855,608.7769 L482.6855,581.7809" id="Stroke-459" stroke="#231F20" stroke-width="0.25" mask="url(#mask-8)"></path>
                <path d="M513.2998,608.7769 L513.2998,581.7809" id="Stroke-460" stroke="#231F20" stroke-width="0.25" mask="url(#mask-8)"></path>
                <path d="M329.3647,609.0269 L360.2287,609.0269" id="Stroke-461" stroke="#231F20" stroke-width="0.25" mask="url(#mask-8)"></path>
                <path d="M329.6147,636.273 L329.6147,609.277" id="Stroke-462" stroke="#231F20" stroke-width="0.25" mask="url(#mask-8)"></path>
                <path d="M360.229,609.0269 L390.843,609.0269" id="Stroke-463" stroke="#231F20" stroke-width="0.25" mask="url(#mask-8)"></path>
                <path d="M360.229,636.273 L360.229,609.277" id="Stroke-464" stroke="#231F20" stroke-width="0.25" mask="url(#mask-8)"></path>
                <path d="M390.8433,609.0269 L421.4573,609.0269" id="Stroke-465" stroke="#231F20" stroke-width="0.25" mask="url(#mask-8)"></path>
                <path d="M390.8433,636.273 L390.8433,609.277" id="Stroke-466" stroke="#231F20" stroke-width="0.25" mask="url(#mask-8)"></path>
                <path d="M421.4575,609.0269 L452.0715,609.0269" id="Stroke-467" stroke="#231F20" stroke-width="0.25" mask="url(#mask-8)"></path>
                <path d="M421.4575,636.273 L421.4575,609.277" id="Stroke-468" stroke="#231F20" stroke-width="0.25" mask="url(#mask-8)"></path>
                <path d="M452.0713,609.0269 L482.6853,609.0269" id="Stroke-469" stroke="#231F20" stroke-width="0.25" mask="url(#mask-8)"></path>
                <path d="M452.0713,636.273 L452.0713,609.277" id="Stroke-470" stroke="#231F20" stroke-width="0.25" mask="url(#mask-8)"></path>
                <path d="M482.6855,609.0269 L513.5495,609.0269" id="Stroke-471" stroke="#231F20" stroke-width="0.25" mask="url(#mask-8)"></path>
                <path d="M482.6855,636.273 L482.6855,609.277" id="Stroke-472" stroke="#231F20" stroke-width="0.25" mask="url(#mask-8)"></path>
                <path d="M513.2998,636.273 L513.2998,609.277" id="Stroke-473" stroke="#231F20" stroke-width="0.25" mask="url(#mask-8)"></path>
                <path d="M329.3647,636.523 L360.2287,636.523" id="Stroke-474" stroke="#231F20" stroke-width="0.25" mask="url(#mask-8)"></path>
                <path d="M329.6147,663.7691 L329.6147,636.7731" id="Stroke-475" stroke="#231F20" stroke-width="0.25" mask="url(#mask-8)"></path>
                <path d="M360.229,636.523 L390.843,636.523" id="Stroke-476" stroke="#231F20" stroke-width="0.25" mask="url(#mask-8)"></path>
                <path d="M360.229,663.7691 L360.229,636.7731" id="Stroke-477" stroke="#231F20" stroke-width="0.25" mask="url(#mask-8)"></path>
                <path d="M390.8433,636.523 L421.4573,636.523" id="Stroke-478" stroke="#231F20" stroke-width="0.25" mask="url(#mask-8)"></path>
                <path d="M390.8433,663.7691 L390.8433,636.7731" id="Stroke-479" stroke="#231F20" stroke-width="0.25" mask="url(#mask-8)"></path>
                <path d="M421.4575,636.523 L452.0715,636.523" id="Stroke-480" stroke="#231F20" stroke-width="0.25" mask="url(#mask-8)"></path>
                <path d="M421.4575,663.7691 L421.4575,636.7731" id="Stroke-481" stroke="#231F20" stroke-width="0.25" mask="url(#mask-8)"></path>
                <path d="M452.0713,636.523 L482.6853,636.523" id="Stroke-482" stroke="#231F20" stroke-width="0.25" mask="url(#mask-8)"></path>
                <path d="M452.0713,663.7691 L452.0713,636.7731" id="Stroke-483" stroke="#231F20" stroke-width="0.25" mask="url(#mask-8)"></path>
                <path d="M482.6855,636.523 L513.5495,636.523" id="Stroke-484" stroke="#231F20" stroke-width="0.25" mask="url(#mask-8)"></path>
                <path d="M482.6855,663.7691 L482.6855,636.7731" id="Stroke-485" stroke="#231F20" stroke-width="0.25" mask="url(#mask-8)"></path>
                <path d="M513.2998,663.7691 L513.2998,636.7731" id="Stroke-486" stroke="#231F20" stroke-width="0.25" mask="url(#mask-8)"></path>
                <path d="M329.3647,664.0191 L360.2287,664.0191" id="Stroke-487" stroke="#231F20" stroke-width="0.25" mask="url(#mask-8)"></path>
                <path d="M329.6147,691.2652 L329.6147,664.2692" id="Stroke-488" stroke="#231F20" stroke-width="0.25" mask="url(#mask-8)"></path>
                <path d="M360.229,664.0191 L390.843,664.0191" id="Stroke-489" stroke="#231F20" stroke-width="0.25" mask="url(#mask-8)"></path>
                <path d="M360.229,691.2652 L360.229,664.2692" id="Stroke-490" stroke="#231F20" stroke-width="0.25" mask="url(#mask-8)"></path>
                <path d="M390.8433,664.0191 L421.4573,664.0191" id="Stroke-491" stroke="#231F20" stroke-width="0.25" mask="url(#mask-8)"></path>
                <path d="M390.8433,691.2652 L390.8433,664.2692" id="Stroke-492" stroke="#231F20" stroke-width="0.25" mask="url(#mask-8)"></path>
                <path d="M421.4575,664.0191 L452.0715,664.0191" id="Stroke-493" stroke="#231F20" stroke-width="0.25" mask="url(#mask-8)"></path>
                <path d="M421.4575,691.2652 L421.4575,664.2692" id="Stroke-494" stroke="#231F20" stroke-width="0.25" mask="url(#mask-8)"></path>
                <path d="M452.0713,664.0191 L482.6853,664.0191" id="Stroke-495" stroke="#231F20" stroke-width="0.25" mask="url(#mask-8)"></path>
                <path d="M452.0713,691.2652 L452.0713,664.2692" id="Stroke-496" stroke="#231F20" stroke-width="0.25" mask="url(#mask-8)"></path>
                <path d="M482.6855,664.0191 L513.5495,664.0191" id="Stroke-497" stroke="#231F20" stroke-width="0.25" mask="url(#mask-8)"></path>
                <path d="M482.6855,691.2652 L482.6855,664.2692" id="Stroke-498" stroke="#231F20" stroke-width="0.25" mask="url(#mask-8)"></path>
                <path d="M513.2998,691.2652 L513.2998,664.2692" id="Stroke-499" stroke="#231F20" stroke-width="0.25" mask="url(#mask-8)"></path>
                <path d="M329.3647,691.5152 L360.2287,691.5152" id="Stroke-500" stroke="#231F20" stroke-width="0.25" mask="url(#mask-8)"></path>
                <path d="M360.229,691.5152 L390.843,691.5152" id="Stroke-501" stroke="#231F20" stroke-width="0.25" mask="url(#mask-8)"></path>
                <path d="M390.8433,691.5152 L421.4573,691.5152" id="Stroke-502" stroke="#231F20" stroke-width="0.25" mask="url(#mask-8)"></path>
                <path d="M421.4575,691.5152 L452.0715,691.5152" id="Stroke-503" stroke="#231F20" stroke-width="0.25" mask="url(#mask-8)"></path>
                <path d="M452.0713,691.5152 L482.6853,691.5152" id="Stroke-504" stroke="#231F20" stroke-width="0.25" mask="url(#mask-8)"></path>
                <path d="M482.6855,691.5152 L513.5495,691.5152" id="Stroke-505" stroke="#231F20" stroke-width="0.25" mask="url(#mask-8)"></path>
            </g>
            <text id="XVI" font-family="AcuminProWide-Semibold, Acumin Pro Wide" font-size="6" font-style="expanded" font-weight="500" letter-spacing="-0.005" fill="#2F2A2B">
                <tspan x="370.1182" y="486.048988">XV</tspan>
                <tspan x="378.9222" y="486.048988">I</tspan>
            </text>
            <text id="XVI" font-family="AcuminProWide-Semibold, Acumin Pro Wide" font-size="6" font-style="expanded" font-weight="500" letter-spacing="-0.005" fill="#2F2A2B">
                <tspan x="399.7102" y="486.048988">XV</tspan>
                <tspan x="408.5142" y="486.048988">I</tspan>
            </text>
            <text id="I" font-family="AcuminProWide-Semibold, Acumin Pro Wide" font-size="6" font-style="expanded" font-weight="500" fill="#2F2A2B">
                <tspan x="410.5762" y="486.048988">I</tspan>
            </text>
            <text id="X" font-family="AcuminProWide-Semibold, Acumin Pro Wide" font-size="6" font-style="expanded" font-weight="500" fill="#2F2A2B">
                <tspan x="429.6022" y="486.048988">X</tspan>
            </text>
            <text id="V" font-family="AcuminProWide-Semibold, Acumin Pro Wide" font-size="6" font-style="expanded" font-weight="500" fill="#2F2A2B">
                <tspan x="433.6402" y="486.048988">V</tspan>
            </text>
            <text id="III" font-family="AcuminProWide-Semibold, Acumin Pro Wide" font-size="6" font-style="expanded" font-weight="500" letter-spacing="-0.021" fill="#2F2A2B">
                <tspan x="438.1222" y="486.048988">II</tspan>
                <tspan x="442.1602" y="486.048988">I</tspan>
            </text>
            <text id="X" font-family="AcuminProWide-Semibold, Acumin Pro Wide" font-size="6" font-style="expanded" font-weight="500" fill="#2F2A2B">
                <tspan x="462.0982" y="486.048988">X</tspan>
            </text>
            <text id="I" font-family="AcuminProWide-Semibold, Acumin Pro Wide" font-size="6" font-style="expanded" font-weight="500" fill="#2F2A2B">
                <tspan x="466.3402" y="486.048988">I</tspan>
            </text>
            <text id="X" font-family="AcuminProWide-Semibold, Acumin Pro Wide" font-size="6" font-style="expanded" font-weight="500" fill="#2F2A2B">
                <tspan x="468.4342" y="486.048988">X</tspan>
            </text>
            <text id="4" font-family="AcuminProWide-Semibold, Acumin Pro Wide" font-size="10.5" font-style="expanded" font-weight="500" fill="#2F2A2B">
                <tspan x="372.1445" y="514.699379">4</tspan>
            </text>
            <text id="1" font-family="AcuminProWide-Semibold, Acumin Pro Wide" font-size="10.5" font-style="expanded" font-weight="500" fill="#2F2A2B">
                <tspan x="401.9015" y="514.699379">1</tspan>
            </text>
            <text id="1" font-family="AcuminProWide-Semibold, Acumin Pro Wide" font-size="10.5" font-style="expanded" font-weight="500" fill="#2F2A2B">
                <tspan x="406.133" y="514.699379">1</tspan>
            </text>
            <text id="1" font-family="AcuminProWide-Semibold, Acumin Pro Wide" font-size="10.5" font-style="expanded" font-weight="500" fill="#2F2A2B">
                <tspan x="431.165" y="514.699379">1</tspan>
            </text>
            <text id="8" font-family="AcuminProWide-Semibold, Acumin Pro Wide" font-size="10.5" font-style="expanded" font-weight="500" fill="#2F2A2B">
                <tspan x="435.554" y="514.699379">8</tspan>
            </text>
            <text id="25" font-family="AcuminProWide-Semibold, Acumin Pro Wide" font-size="10.5" font-style="expanded" font-weight="500" fill="#2F2A2B">
                <tspan x="460.7435" y="514.699379">25</tspan>
            </text>
            <text id="5" font-family="AcuminProWide-Semibold, Acumin Pro Wide" font-size="10.5" font-style="expanded" font-weight="500" fill="#2F2A2B">
                <tspan x="372.1235" y="542.198879">5</tspan>
            </text>
            <text id="1" font-family="AcuminProWide-Semibold, Acumin Pro Wide" font-size="10.5" font-style="expanded" font-weight="500" fill="#2F2A2B">
                <tspan x="400.715" y="542.198879">1</tspan>
            </text>
            <text id="2" font-family="AcuminProWide-Semibold, Acumin Pro Wide" font-size="10.5" font-style="expanded" font-weight="500" fill="#2F2A2B">
                <tspan x="405.167" y="542.198879">2</tspan>
            </text>
            <text id="1" font-family="AcuminProWide-Semibold, Acumin Pro Wide" font-size="10.5" font-style="expanded" font-weight="500" fill="#2F2A2B">
                <tspan x="431.228" y="542.198879">1</tspan>
            </text>
            <text id="9" font-family="AcuminProWide-Semibold, Acumin Pro Wide" font-size="10.5" font-style="expanded" font-weight="500" fill="#2F2A2B">
                <tspan x="435.5855" y="542.198879">9</tspan>
            </text>
            <text id="26" font-family="AcuminProWide-Semibold, Acumin Pro Wide" font-size="10.5" font-style="expanded" font-weight="500" fill="#2F2A2B">
                <tspan x="460.7855" y="542.198879">26</tspan>
            </text>
            <text id="6" font-family="AcuminProWide-Semibold, Acumin Pro Wide" font-size="10.5" font-style="expanded" font-weight="500" fill="#2F2A2B">
                <tspan x="372.1655" y="569.698379">6</tspan>
            </text>
            <text id="1" font-family="AcuminProWide-Semibold, Acumin Pro Wide" font-size="10.5" font-style="expanded" font-weight="500" fill="#2F2A2B">
                <tspan x="400.631" y="569.698379">1</tspan>
            </text>
            <text id="3" font-family="AcuminProWide-Semibold, Acumin Pro Wide" font-size="10.5" font-style="expanded" font-weight="500" fill="#2F2A2B">
                <tspan x="404.9885" y="569.698379">3</tspan>
            </text>
            <text id="2" font-family="AcuminProWide-Semibold, Acumin Pro Wide" font-size="10.5" font-style="expanded" font-weight="500" fill="#2F2A2B">
                <tspan x="430.0415" y="569.698379">2</tspan>
            </text>
            <text id="0" font-family="AcuminProWide-Semibold, Acumin Pro Wide" font-size="10.5" font-style="expanded" font-weight="500" fill="#2F2A2B">
                <tspan x="436.5515" y="569.698379">0</tspan>
            </text>
            <text id="2" font-family="AcuminProWide-Semibold, Acumin Pro Wide" font-size="10.5" font-style="expanded" font-weight="500" fill="#2F2A2B">
                <tspan x="461.153" y="569.698379">2</tspan>
            </text>
            <text id="7" font-family="AcuminProWide-Semibold, Acumin Pro Wide" font-size="10.5" font-style="expanded" font-weight="500" fill="#2F2A2B">
                <tspan x="467.831" y="569.698379">7</tspan>
            </text>
            <text id="7" font-family="AcuminProWide-Semibold, Acumin Pro Wide" font-size="10.5" font-style="expanded" font-weight="500" fill="#2F2A2B">
                <tspan x="372.6485" y="597.197879">7</tspan>
            </text>
            <text id="1" font-family="AcuminProWide-Semibold, Acumin Pro Wide" font-size="10.5" font-style="expanded" font-weight="500" fill="#2F2A2B">
                <tspan x="400.61" y="597.197879">1</tspan>
            </text>
            <text id="4" font-family="AcuminProWide-Semibold, Acumin Pro Wide" font-size="10.5" font-style="expanded" font-weight="500" fill="#2F2A2B">
                <tspan x="404.9675" y="597.197879">4</tspan>
            </text>
            <text id="2" font-family="AcuminProWide-Semibold, Acumin Pro Wide" font-size="10.5" font-style="expanded" font-weight="500" fill="#2F2A2B">
                <tspan x="431.3645" y="597.197879">2</tspan>
            </text>
            <text id="1" font-family="AcuminProWide-Semibold, Acumin Pro Wide" font-size="10.5" font-style="expanded" font-weight="500" fill="#2F2A2B">
                <tspan x="437.9585" y="597.197879">1</tspan>
            </text>
            <text id="2" font-family="AcuminProWide-Semibold, Acumin Pro Wide" font-size="10.5" font-style="expanded" font-weight="500" fill="#2F2A2B">
                <tspan x="460.7435" y="597.197879">2</tspan>
            </text>
            <text id="8" font-family="AcuminProWide-Semibold, Acumin Pro Wide" font-size="10.5" font-style="expanded" font-weight="500" fill="#2F2A2B">
                <tspan x="467.2745" y="597.197879">8</tspan>
            </text>
            <text id="1" font-family="AcuminProWide-Semibold, Acumin Pro Wide" font-size="10.5" font-style="expanded" font-weight="500" fill="#2F2A2B">
                <tspan x="342.818" y="624.697379">1</tspan>
            </text>
            <text id="8" font-family="AcuminProWide-Semibold, Acumin Pro Wide" font-size="10.5" font-style="expanded" font-weight="500" fill="#2F2A2B">
                <tspan x="372.1655" y="624.697379">8</tspan>
            </text>
            <text id="1" font-family="AcuminProWide-Semibold, Acumin Pro Wide" font-size="10.5" font-style="expanded" font-weight="500" fill="#2F2A2B">
                <tspan x="400.6415" y="624.697379">1</tspan>
            </text>
            <text id="5" font-family="AcuminProWide-Semibold, Acumin Pro Wide" font-size="10.5" font-style="expanded" font-weight="500" fill="#2F2A2B">
                <tspan x="404.8835" y="624.697379">5</tspan>
            </text>
            <text id="2" font-family="AcuminProWide-Semibold, Acumin Pro Wide" font-size="10.5" font-style="expanded" font-weight="500" fill="#2F2A2B">
                <tspan x="430.22" y="624.697379">2</tspan>
            </text>
            <text id="2" font-family="AcuminProWide-Semibold, Acumin Pro Wide" font-size="10.5" font-style="expanded" font-weight="500" fill="#2F2A2B">
                <tspan x="436.94" y="624.697379">2</tspan>
            </text>
            <text id="2" font-family="AcuminProWide-Semibold, Acumin Pro Wide" font-size="10.5" font-style="expanded" font-weight="500" fill="#2F2A2B">
                <tspan x="341.7365" y="652.196879">2</tspan>
            </text>
            <text id="9" font-family="AcuminProWide-Semibold, Acumin Pro Wide" font-size="10.5" font-style="expanded" font-weight="500" fill="#2F2A2B">
                <tspan x="372.197" y="652.196879">9</tspan>
            </text>
            <text id="1" font-family="AcuminProWide-Semibold, Acumin Pro Wide" font-size="10.5" font-style="expanded" font-weight="500" fill="#2F2A2B">
                <tspan x="400.61" y="652.196879">1</tspan>
            </text>
            <text id="6" font-family="AcuminProWide-Semibold, Acumin Pro Wide" font-size="10.5" font-style="expanded" font-weight="500" fill="#2F2A2B">
                <tspan x="404.978" y="652.196879">6</tspan>
            </text>
            <text id="2" font-family="AcuminProWide-Semibold, Acumin Pro Wide" font-size="10.5" font-style="expanded" font-weight="500" fill="#2F2A2B">
                <tspan x="430.136" y="652.196879">2</tspan>
            </text>
            <text id="3" font-family="AcuminProWide-Semibold, Acumin Pro Wide" font-size="10.5" font-style="expanded" font-weight="500" fill="#2F2A2B">
                <tspan x="436.73" y="652.196879">3</tspan>
            </text>
            <text id="3" font-family="AcuminProWide-Semibold, Acumin Pro Wide" font-size="10.5" font-style="expanded" font-weight="500" fill="#EAAE2E">
                <tspan x="341.5895" y="679.696379">3</tspan>
            </text>
            <text id="1" font-family="AcuminProWide-Semibold, Acumin Pro Wide" font-size="10.5" font-style="expanded" font-weight="500" fill="#EAAE2E">
                <tspan x="369.908" y="679.696379">1</tspan>
            </text>
            <text id="0" font-family="AcuminProWide-Semibold, Acumin Pro Wide" font-size="10.5" font-style="expanded" font-weight="500" fill="#EAAE2E">
                <tspan x="374.234" y="679.696379">0</tspan>
            </text>
            <text id="1" font-family="AcuminProWide-Semibold, Acumin Pro Wide" font-size="10.5" font-style="expanded" font-weight="500" fill="#EAAE2E">
                <tspan x="401.0195" y="679.696379">1</tspan>
            </text>
            <text id="7" font-family="AcuminProWide-Semibold, Acumin Pro Wide" font-size="10.5" font-style="expanded" font-weight="500" fill="#EAAE2E">
                <tspan x="405.5135" y="679.696379">7</tspan>
            </text>
            <text id="2" font-family="AcuminProWide-Semibold, Acumin Pro Wide" font-size="10.5" font-style="expanded" font-weight="500" fill="#EAAE2E">
                <tspan x="430.1465" y="679.696379">2</tspan>
            </text>
            <text id="4" font-family="AcuminProWide-Semibold, Acumin Pro Wide" font-size="10.5" font-style="expanded" font-weight="500" fill="#EAAE2E">
                <tspan x="436.667" y="679.696379">4</tspan>
            </text>
            <g id="Group-608" transform="translate(0.000000, 0.550000)">
                <path d="M462.3486,704.107 C462.3486,704.883 462.9056,705.367 463.7446,705.377 C464.6476,705.377 465.1726,704.894 465.1726,704.18 C465.1726,703.498 464.8046,702.763 463.7446,702.763 C462.8416,702.763 462.3486,703.319 462.3486,704.107 Z M462.4526,707.33 C462.6426,707.802 462.9896,708.159 463.7656,708.159 C465.0146,708.159 465.2876,706.888 465.3406,705.818 C464.9306,706.3 464.3326,706.552 463.4826,706.552 C461.8656,706.552 460.8056,705.577 460.8056,704.169 C460.8056,702.731 461.9286,701.587 463.7656,701.587 C465.8446,701.587 466.8526,703.004 466.8526,705.199 C466.8526,706.899 466.3906,709.293 463.7346,709.293 C461.7816,709.293 461.0996,708.201 460.8996,707.33 L462.4526,707.33 Z M457.5546,709.146 L457.5546,703.487 C457.1866,703.697 456.2946,703.876 455.9586,703.897 L455.9586,702.815 C456.8926,702.627 457.6176,702.154 457.9846,701.734 L459.1186,701.734 L459.1186,709.146 L457.5546,709.146 Z M450.0326,705.419 C450.0326,706.636 450.4106,708.096 451.6276,708.096 C452.9086,708.096 453.2026,706.731 453.2026,705.377 C453.2026,704.222 452.8876,702.773 451.6376,702.773 C450.4106,702.773 450.0326,703.97 450.0326,705.419 Z M454.7446,705.367 C454.7446,707.529 453.8316,709.293 451.6176,709.293 C449.5376,709.293 448.4786,707.571 448.4786,705.44 C448.4786,703.361 449.4956,701.587 451.6376,701.587 C453.6746,701.587 454.7446,703.172 454.7446,705.367 Z M441.4416,709.146 L441.4416,709.104 C441.4416,707.56 442.3546,706.49 443.9506,705.513 C445.2306,704.737 445.5566,704.495 445.5566,703.834 C445.5566,703.204 445.1576,702.763 444.3176,702.763 C443.3936,702.763 443.0366,703.33 442.9316,704.054 L441.4616,704.054 C441.6096,702.658 442.4806,701.587 444.3596,701.587 C446.2176,701.587 447.0886,702.616 447.0886,703.823 C447.0886,704.947 446.5536,705.503 445.0946,706.353 C444.1606,706.878 443.4986,707.424 443.3206,707.907 L447.4466,707.907 L447.2456,709.146 L441.4416,709.146 Z M431.1406,705.398 C431.1406,706.857 431.9386,708.064 433.5126,708.064 C435.1086,708.064 435.8016,706.773 435.8016,705.429 C435.8016,704.044 435.0556,702.805 433.4396,702.805 C431.9066,702.805 431.1406,704.044 431.1406,705.398 Z M437.4496,705.409 C437.4496,707.476 436.0636,709.303 433.4286,709.303 C430.9616,709.303 429.5026,707.582 429.5026,705.419 C429.5026,703.372 431.0246,701.577 433.4926,701.577 C436.0116,701.577 437.4496,703.382 437.4496,705.409 Z M426.1666,709.146 L427.7206,709.146 L427.7206,701.734 L426.1666,701.734 L426.1666,709.146 Z M421.9026,706.017 C421.1466,704.201 420.7796,703.309 420.6006,702.763 L420.5906,702.763 C420.4326,703.288 420.0026,704.463 419.3836,706.017 L421.9026,706.017 Z M418.9636,707.277 L418.2176,709.146 L416.6116,709.146 L419.6666,701.734 L421.6296,701.734 L424.8316,709.146 L423.1416,709.146 L422.3546,707.277 L418.9636,707.277 Z M410.5816,704.989 L412.5556,704.989 C413.5216,704.989 413.9626,704.642 413.9626,703.939 C413.9626,703.277 413.5216,702.92 412.5876,702.92 L410.5816,702.92 L410.5816,704.989 Z M410.5816,706.174 L410.5816,709.146 L409.0386,709.146 L409.0386,701.734 L412.9236,701.734 C414.5716,701.734 415.5576,702.521 415.5576,703.813 C415.5576,704.747 415.0336,705.335 414.2456,705.577 C414.6136,705.703 415.3696,706.017 415.3696,707.34 L415.3696,707.686 C415.3696,708.222 415.3586,708.81 415.4526,709.146 L413.8576,709.146 C413.7426,708.82 413.7316,708.337 413.7316,707.602 L413.7316,707.361 C413.7316,706.501 413.4166,706.174 412.2616,706.174 L410.5816,706.174 Z M402.0776,707.97 L404.2086,707.97 C404.9646,707.97 405.6156,707.739 405.6156,706.899 C405.6156,706.216 405.1116,705.86 404.1976,705.86 L402.0776,705.86 L402.0776,707.97 Z M404.1346,704.684 C405.0276,704.684 405.3636,704.348 405.3636,703.813 C405.3636,703.151 404.8596,702.92 404.1556,702.92 L402.0776,702.92 L402.0776,704.684 L404.1346,704.684 Z M400.5446,701.734 L404.4706,701.734 C406.1816,701.734 406.9796,702.543 406.9796,703.624 C406.9796,704.505 406.4126,705.009 405.8356,705.209 C406.5386,705.419 407.2526,705.944 407.2526,706.952 C407.2526,708.369 406.1406,709.146 404.4496,709.146 L400.5446,709.146 L400.5446,701.734 Z M393.5826,707.97 L395.7136,707.97 C396.4696,707.97 397.1206,707.739 397.1206,706.899 C397.1206,706.216 396.6166,705.86 395.7036,705.86 L393.5826,705.86 L393.5826,707.97 Z M395.6406,704.684 C396.5326,704.684 396.8686,704.348 396.8686,703.813 C396.8686,703.151 396.3646,702.92 395.6616,702.92 L393.5826,702.92 L393.5826,704.684 L395.6406,704.684 Z M392.0506,701.734 L395.9766,701.734 C397.6876,701.734 398.4856,702.543 398.4856,703.624 C398.4856,704.505 397.9186,705.009 397.3416,705.209 C398.0446,705.419 398.7586,705.944 398.7586,706.952 C398.7586,708.369 397.6456,709.146 395.9556,709.146 L392.0506,709.146 L392.0506,701.734 Z M389.8856,705.913 L385.6546,705.913 L385.6546,707.886 L390.3476,707.886 L390.1686,709.146 L384.1006,709.146 L384.1006,701.734 L390.1166,701.734 L390.1166,702.994 L385.6546,702.994 L385.6546,704.653 L389.8856,704.653 L389.8856,705.913 Z M376.5756,701.734 L382.5276,701.734 L382.5276,702.983 L378.1286,702.983 L378.1286,704.905 L382.2336,704.905 L382.2336,706.174 L378.1286,706.174 L378.1286,709.146 L376.5756,709.146 L376.5756,701.734 Z" id="Fill-507" fill="#231F20"></path>
                <mask id="mask-10" fill="white">
                    <use xlink:href="#path-9"></use>
                </mask>
                <g id="Clip-510"></g>
            </g>
            <g id="Group-710" transform="translate(0.000000, 0.550000)">
                <mask id="mask-12" fill="white">
                    <use xlink:href="#path-11"></use>
                </mask>
                <g id="Clip-612"></g>
            </g>
            <g id="Group-812" transform="translate(0.000000, 0.550000)">
                <mask id="mask-14" fill="white">
                    <use xlink:href="#path-13"></use>
                </mask>
                <g id="Clip-714"></g>
            </g>
            <g id="Group-914" transform="translate(0.000000, 0.550000)">
                <mask id="mask-16" fill="white">
                    <use xlink:href="#path-15"></use>
                </mask>
                <g id="Clip-816"></g>
            </g>
        </g>
    </g>
</svg>