<?xml version="1.0" encoding="UTF-8"?>
<svg width="185px" height="240px" viewBox="0 0 185 240" version="1.1" xmlns="http://www.w3.org/2000/svg" xmlns:xlink="http://www.w3.org/1999/xlink">
    <!-- Generator: Sketch 51.2 (57519) - http://www.bohemiancoding.com/sketch -->
    <title>calendario-1905</title>
    <desc>Created with Sketch.</desc>
    <defs>
        <polygon id="path-1" points="0 1191 841.89 1191 841.89 0.449 0 0.449"></polygon>
        <polygon id="path-3" points="0 1191 841.89 1191 841.89 0.449 0 0.449"></polygon>
        <polygon id="path-5" points="0 1191 841.89 1191 841.89 0.449 0 0.449"></polygon>
        <polygon id="path-7" points="0 1191 841.89 1191 841.89 0.449 0 0.449"></polygon>
        <polygon id="path-9" points="0 1191 841.89 1191 841.89 0.449 0 0.449"></polygon>
        <polygon id="path-11" points="0 1191 841.89 1191 841.89 0.449 0 0.449"></polygon>
        <polygon id="path-13" points="0 1191 841.89 1191 841.89 0.449 0 0.449"></polygon>
        <polygon id="path-15" points="0 1191 841.89 1191 841.89 0.449 0 0.449"></polygon>
    </defs>
    <g id="calendario-1905" stroke="none" stroke-width="1" fill="none" fill-rule="evenodd">
        <g id="www-calendario-copy-7" transform="translate(-328.500000, -756.000000)">
            <g id="Group-200" transform="translate(0.000000, 0.550000)">
                <mask id="mask-2" fill="white">
                    <use xlink:href="#path-1"></use>
                </mask>
                <g id="Clip-102"></g>
            </g>
            <g id="Group-302" transform="translate(0.000000, 0.550000)">
                <mask id="mask-4" fill="white">
                    <use xlink:href="#path-3"></use>
                </mask>
                <g id="Clip-204"></g>
            </g>
            <g id="Group-404" transform="translate(0.000000, 0.550000)">
                <mask id="mask-6" fill="white">
                    <use xlink:href="#path-5"></use>
                </mask>
                <g id="Clip-306"></g>
            </g>
            <g id="Group-506" transform="translate(0.000000, 0.550000)">
                <mask id="mask-8" fill="white">
                    <use xlink:href="#path-7"></use>
                </mask>
                <g id="Clip-408"></g>
            </g>
            <g id="Group-608" transform="translate(0.000000, 0.550000)">
                <mask id="mask-10" fill="white">
                    <use xlink:href="#path-9"></use>
                </mask>
                <g id="Clip-510"></g>
            </g>
            <g id="Group-710" transform="translate(0.000000, 0.550000)">
                <mask id="mask-12" fill="white">
                    <use xlink:href="#path-11"></use>
                </mask>
                <g id="Clip-612"></g>
            </g>
            <g id="Group-812" transform="translate(0.000000, 0.550000)">
                <mask id="mask-14" fill="white">
                    <use xlink:href="#path-13"></use>
                </mask>
                <g id="Clip-714"></g>
                <path d="M360.229,801.75 L390.843,801.75 L390.843,774.254 L360.229,774.254 L360.229,801.75 Z M390.843,801.75 L421.457,801.75 L421.457,774.254 L390.843,774.254 L390.843,801.75 Z M421.457,801.75 L452.071,801.75 L452.071,774.254 L421.457,774.254 L421.457,801.75 Z M452.07,801.75 L482.684,801.75 L482.684,774.254 L452.07,774.254 L452.07,801.75 Z M360.229,829.246 L390.843,829.246 L390.843,801.75 L360.229,801.75 L360.229,829.246 Z M390.843,829.246 L421.457,829.246 L421.457,801.75 L390.843,801.75 L390.843,829.246 Z M421.457,829.246 L452.071,829.246 L452.071,801.75 L421.457,801.75 L421.457,829.246 Z M452.07,829.246 L482.684,829.246 L482.684,801.75 L452.07,801.75 L452.07,829.246 Z M360.229,856.742 L390.843,856.742 L390.843,829.246 L360.229,829.246 L360.229,856.742 Z M390.843,856.742 L421.457,856.742 L421.457,829.246 L390.843,829.246 L390.843,856.742 Z M421.457,856.742 L452.071,856.742 L452.071,829.246 L421.457,829.246 L421.457,856.742 Z M452.07,856.742 L482.684,856.742 L482.684,829.246 L452.07,829.246 L452.07,856.742 Z M360.229,884.238 L390.843,884.238 L390.843,856.742 L360.229,856.742 L360.229,884.238 Z M390.843,884.238 L421.457,884.238 L421.457,856.742 L390.843,856.742 L390.843,884.238 Z M421.457,884.238 L452.071,884.238 L452.071,856.742 L421.457,856.742 L421.457,884.238 Z M329.615,939.23 L360.229,939.23 L360.229,911.734 L329.615,911.734 L329.615,939.23 Z M360.229,939.23 L390.843,939.23 L390.843,911.734 L360.229,911.734 L360.229,939.23 Z M390.843,939.23 L421.457,939.23 L421.457,911.734 L390.843,911.734 L390.843,939.23 Z M421.457,939.23 L452.071,939.23 L452.071,911.734 L421.457,911.734 L421.457,939.23 Z" id="Fill-713" fill="#E49F24" mask="url(#mask-14)"></path>
                <path d="M329.3647,774.2535 L360.2287,774.2535" id="Stroke-715" stroke="#231F20" stroke-width="0.25" mask="url(#mask-14)"></path>
                <path d="M329.6147,801.4996 L329.6147,774.5036" id="Stroke-716" stroke="#231F20" stroke-width="0.25" mask="url(#mask-14)"></path>
                <path d="M360.229,774.2535 L390.843,774.2535" id="Stroke-717" stroke="#231F20" stroke-width="0.25" mask="url(#mask-14)"></path>
                <path d="M360.229,801.4996 L360.229,774.5036" id="Stroke-718" stroke="#231F20" stroke-width="0.25" mask="url(#mask-14)"></path>
                <path d="M390.8433,774.2535 L421.4573,774.2535" id="Stroke-719" stroke="#231F20" stroke-width="0.25" mask="url(#mask-14)"></path>
                <path d="M390.8433,801.4996 L390.8433,774.5036" id="Stroke-720" stroke="#231F20" stroke-width="0.25" mask="url(#mask-14)"></path>
                <path d="M421.4575,774.2535 L452.0715,774.2535" id="Stroke-721" stroke="#231F20" stroke-width="0.25" mask="url(#mask-14)"></path>
                <path d="M421.4575,801.4996 L421.4575,774.5036" id="Stroke-722" stroke="#231F20" stroke-width="0.25" mask="url(#mask-14)"></path>
                <path d="M452.0713,774.2535 L482.6853,774.2535" id="Stroke-723" stroke="#231F20" stroke-width="0.25" mask="url(#mask-14)"></path>
                <path d="M452.0713,801.4996 L452.0713,774.5036" id="Stroke-724" stroke="#231F20" stroke-width="0.25" mask="url(#mask-14)"></path>
                <path d="M482.6855,774.2535 L513.5495,774.2535" id="Stroke-725" stroke="#231F20" stroke-width="0.25" mask="url(#mask-14)"></path>
                <path d="M482.6855,801.4996 L482.6855,774.5036" id="Stroke-726" stroke="#231F20" stroke-width="0.25" mask="url(#mask-14)"></path>
                <path d="M513.2998,801.4996 L513.2998,774.5036" id="Stroke-727" stroke="#231F20" stroke-width="0.25" mask="url(#mask-14)"></path>
                <path d="M329.3647,801.7496 L360.2287,801.7496" id="Stroke-728" stroke="#231F20" stroke-width="0.25" mask="url(#mask-14)"></path>
                <path d="M329.6147,828.9957 L329.6147,801.9997" id="Stroke-729" stroke="#231F20" stroke-width="0.25" mask="url(#mask-14)"></path>
                <path d="M360.229,801.7496 L390.843,801.7496" id="Stroke-730" stroke="#231F20" stroke-width="0.25" mask="url(#mask-14)"></path>
                <path d="M360.229,828.9957 L360.229,801.9997" id="Stroke-731" stroke="#231F20" stroke-width="0.25" mask="url(#mask-14)"></path>
                <path d="M390.8433,801.7496 L421.4573,801.7496" id="Stroke-732" stroke="#231F20" stroke-width="0.25" mask="url(#mask-14)"></path>
                <path d="M390.8433,828.9957 L390.8433,801.9997" id="Stroke-733" stroke="#231F20" stroke-width="0.25" mask="url(#mask-14)"></path>
                <path d="M421.4575,801.7496 L452.0715,801.7496" id="Stroke-734" stroke="#231F20" stroke-width="0.25" mask="url(#mask-14)"></path>
                <path d="M421.4575,828.9957 L421.4575,801.9997" id="Stroke-735" stroke="#231F20" stroke-width="0.25" mask="url(#mask-14)"></path>
                <path d="M452.0713,801.7496 L482.6853,801.7496" id="Stroke-736" stroke="#231F20" stroke-width="0.25" mask="url(#mask-14)"></path>
                <path d="M452.0713,828.9957 L452.0713,801.9997" id="Stroke-737" stroke="#231F20" stroke-width="0.25" mask="url(#mask-14)"></path>
                <path d="M482.6855,801.7496 L513.5495,801.7496" id="Stroke-738" stroke="#231F20" stroke-width="0.25" mask="url(#mask-14)"></path>
                <path d="M482.6855,828.9957 L482.6855,801.9997" id="Stroke-739" stroke="#231F20" stroke-width="0.25" mask="url(#mask-14)"></path>
                <path d="M513.2998,828.9957 L513.2998,801.9997" id="Stroke-740" stroke="#231F20" stroke-width="0.25" mask="url(#mask-14)"></path>
                <path d="M329.3647,829.2457 L360.2287,829.2457" id="Stroke-741" stroke="#231F20" stroke-width="0.25" mask="url(#mask-14)"></path>
                <path d="M329.6147,856.4918 L329.6147,829.4958" id="Stroke-742" stroke="#231F20" stroke-width="0.25" mask="url(#mask-14)"></path>
                <path d="M360.229,829.2457 L390.843,829.2457" id="Stroke-743" stroke="#231F20" stroke-width="0.25" mask="url(#mask-14)"></path>
                <path d="M360.229,856.4918 L360.229,829.4958" id="Stroke-744" stroke="#231F20" stroke-width="0.25" mask="url(#mask-14)"></path>
                <path d="M390.8433,829.2457 L421.4573,829.2457" id="Stroke-745" stroke="#231F20" stroke-width="0.25" mask="url(#mask-14)"></path>
                <path d="M390.8433,856.4918 L390.8433,829.4958" id="Stroke-746" stroke="#231F20" stroke-width="0.25" mask="url(#mask-14)"></path>
                <path d="M421.4575,829.2457 L452.0715,829.2457" id="Stroke-747" stroke="#231F20" stroke-width="0.25" mask="url(#mask-14)"></path>
                <path d="M421.4575,856.4918 L421.4575,829.4958" id="Stroke-748" stroke="#231F20" stroke-width="0.25" mask="url(#mask-14)"></path>
                <path d="M452.0713,829.2457 L482.6853,829.2457" id="Stroke-749" stroke="#231F20" stroke-width="0.25" mask="url(#mask-14)"></path>
                <path d="M452.0713,856.4918 L452.0713,829.4958" id="Stroke-750" stroke="#231F20" stroke-width="0.25" mask="url(#mask-14)"></path>
                <path d="M482.6855,829.2457 L513.5495,829.2457" id="Stroke-751" stroke="#231F20" stroke-width="0.25" mask="url(#mask-14)"></path>
                <path d="M482.6855,856.4918 L482.6855,829.4958" id="Stroke-752" stroke="#231F20" stroke-width="0.25" mask="url(#mask-14)"></path>
                <path d="M513.2998,856.4918 L513.2998,829.4958" id="Stroke-753" stroke="#231F20" stroke-width="0.25" mask="url(#mask-14)"></path>
                <path d="M329.3647,856.7418 L360.2287,856.7418" id="Stroke-754" stroke="#231F20" stroke-width="0.25" mask="url(#mask-14)"></path>
                <path d="M329.6147,883.9879 L329.6147,856.9919" id="Stroke-755" stroke="#231F20" stroke-width="0.25" mask="url(#mask-14)"></path>
                <path d="M360.229,856.7418 L390.843,856.7418" id="Stroke-756" stroke="#231F20" stroke-width="0.25" mask="url(#mask-14)"></path>
                <path d="M360.229,883.9879 L360.229,856.9919" id="Stroke-757" stroke="#231F20" stroke-width="0.25" mask="url(#mask-14)"></path>
                <path d="M390.8433,856.7418 L421.4573,856.7418" id="Stroke-758" stroke="#231F20" stroke-width="0.25" mask="url(#mask-14)"></path>
                <path d="M390.8433,883.9879 L390.8433,856.9919" id="Stroke-759" stroke="#231F20" stroke-width="0.25" mask="url(#mask-14)"></path>
                <path d="M421.4575,856.7418 L452.0715,856.7418" id="Stroke-760" stroke="#231F20" stroke-width="0.25" mask="url(#mask-14)"></path>
                <path d="M421.4575,883.9879 L421.4575,856.9919" id="Stroke-761" stroke="#231F20" stroke-width="0.25" mask="url(#mask-14)"></path>
                <path d="M452.0713,856.7418 L482.6853,856.7418" id="Stroke-762" stroke="#231F20" stroke-width="0.25" mask="url(#mask-14)"></path>
                <path d="M452.0713,883.9879 L452.0713,856.9919" id="Stroke-763" stroke="#231F20" stroke-width="0.25" mask="url(#mask-14)"></path>
                <path d="M482.6855,856.7418 L513.5495,856.7418" id="Stroke-764" stroke="#231F20" stroke-width="0.25" mask="url(#mask-14)"></path>
                <path d="M482.6855,883.9879 L482.6855,856.9919" id="Stroke-765" stroke="#231F20" stroke-width="0.25" mask="url(#mask-14)"></path>
                <path d="M513.2998,883.9879 L513.2998,856.9919" id="Stroke-766" stroke="#231F20" stroke-width="0.25" mask="url(#mask-14)"></path>
                <path d="M329.3647,884.2379 L360.2287,884.2379" id="Stroke-767" stroke="#231F20" stroke-width="0.25" mask="url(#mask-14)"></path>
                <path d="M329.6147,911.484 L329.6147,884.488" id="Stroke-768" stroke="#231F20" stroke-width="0.25" mask="url(#mask-14)"></path>
                <path d="M360.229,884.2379 L390.843,884.2379" id="Stroke-769" stroke="#231F20" stroke-width="0.25" mask="url(#mask-14)"></path>
                <path d="M360.229,911.484 L360.229,884.488" id="Stroke-770" stroke="#231F20" stroke-width="0.25" mask="url(#mask-14)"></path>
                <path d="M390.8433,884.2379 L421.4573,884.2379" id="Stroke-771" stroke="#231F20" stroke-width="0.25" mask="url(#mask-14)"></path>
                <path d="M390.8433,911.484 L390.8433,884.488" id="Stroke-772" stroke="#231F20" stroke-width="0.25" mask="url(#mask-14)"></path>
                <path d="M421.4575,884.2379 L452.0715,884.2379" id="Stroke-773" stroke="#231F20" stroke-width="0.25" mask="url(#mask-14)"></path>
                <path d="M421.4575,911.484 L421.4575,884.488" id="Stroke-774" stroke="#231F20" stroke-width="0.25" mask="url(#mask-14)"></path>
                <path d="M452.0713,884.2379 L482.6853,884.2379" id="Stroke-775" stroke="#231F20" stroke-width="0.25" mask="url(#mask-14)"></path>
                <path d="M452.0713,911.484 L452.0713,884.488" id="Stroke-776" stroke="#231F20" stroke-width="0.25" mask="url(#mask-14)"></path>
                <path d="M482.6855,884.2379 L513.5495,884.2379" id="Stroke-777" stroke="#231F20" stroke-width="0.25" mask="url(#mask-14)"></path>
                <path d="M482.6855,911.484 L482.6855,884.488" id="Stroke-778" stroke="#231F20" stroke-width="0.25" mask="url(#mask-14)"></path>
                <path d="M513.2998,911.484 L513.2998,884.488" id="Stroke-779" stroke="#231F20" stroke-width="0.25" mask="url(#mask-14)"></path>
                <path d="M329.3647,911.734 L360.2287,911.734" id="Stroke-780" stroke="#231F20" stroke-width="0.25" mask="url(#mask-14)"></path>
                <path d="M329.6147,938.9801 L329.6147,911.9841" id="Stroke-781" stroke="#231F20" stroke-width="0.25" mask="url(#mask-14)"></path>
                <path d="M360.229,911.734 L390.843,911.734" id="Stroke-782" stroke="#231F20" stroke-width="0.25" mask="url(#mask-14)"></path>
                <path d="M360.229,938.9801 L360.229,911.9841" id="Stroke-783" stroke="#231F20" stroke-width="0.25" mask="url(#mask-14)"></path>
                <path d="M390.8433,911.734 L421.4573,911.734" id="Stroke-784" stroke="#231F20" stroke-width="0.25" mask="url(#mask-14)"></path>
                <path d="M390.8433,938.9801 L390.8433,911.9841" id="Stroke-785" stroke="#231F20" stroke-width="0.25" mask="url(#mask-14)"></path>
                <path d="M421.4575,911.734 L452.0715,911.734" id="Stroke-786" stroke="#231F20" stroke-width="0.25" mask="url(#mask-14)"></path>
                <path d="M421.4575,938.9801 L421.4575,911.9841" id="Stroke-787" stroke="#231F20" stroke-width="0.25" mask="url(#mask-14)"></path>
                <path d="M452.0713,911.734 L482.6853,911.734" id="Stroke-788" stroke="#231F20" stroke-width="0.25" mask="url(#mask-14)"></path>
                <path d="M452.0713,938.9801 L452.0713,911.9841" id="Stroke-789" stroke="#231F20" stroke-width="0.25" mask="url(#mask-14)"></path>
                <path d="M482.6855,911.734 L513.5495,911.734" id="Stroke-790" stroke="#231F20" stroke-width="0.25" mask="url(#mask-14)"></path>
                <path d="M482.6855,938.9801 L482.6855,911.9841" id="Stroke-791" stroke="#231F20" stroke-width="0.25" mask="url(#mask-14)"></path>
                <path d="M513.2998,938.9801 L513.2998,911.9841" id="Stroke-792" stroke="#231F20" stroke-width="0.25" mask="url(#mask-14)"></path>
                <path d="M329.3647,939.2301 L360.2287,939.2301" id="Stroke-793" stroke="#231F20" stroke-width="0.25" mask="url(#mask-14)"></path>
                <path d="M329.6147,966.4752 L329.6147,939.4802" id="Stroke-794" stroke="#231F20" stroke-width="0.25" mask="url(#mask-14)"></path>
                <path d="M360.229,939.2301 L390.843,939.2301" id="Stroke-795" stroke="#231F20" stroke-width="0.25" mask="url(#mask-14)"></path>
                <path d="M360.229,966.4752 L360.229,939.4802" id="Stroke-796" stroke="#231F20" stroke-width="0.25" mask="url(#mask-14)"></path>
                <path d="M390.8433,939.2301 L421.4573,939.2301" id="Stroke-797" stroke="#231F20" stroke-width="0.25" mask="url(#mask-14)"></path>
                <path d="M390.8433,966.4752 L390.8433,939.4802" id="Stroke-798" stroke="#231F20" stroke-width="0.25" mask="url(#mask-14)"></path>
                <path d="M421.4575,939.2301 L452.0715,939.2301" id="Stroke-799" stroke="#231F20" stroke-width="0.25" mask="url(#mask-14)"></path>
                <path d="M421.4575,966.4752 L421.4575,939.4802" id="Stroke-800" stroke="#231F20" stroke-width="0.25" mask="url(#mask-14)"></path>
                <path d="M452.0713,939.2301 L482.6853,939.2301" id="Stroke-801" stroke="#231F20" stroke-width="0.25" mask="url(#mask-14)"></path>
                <path d="M452.0713,966.4752 L452.0713,939.4802" id="Stroke-802" stroke="#231F20" stroke-width="0.25" mask="url(#mask-14)"></path>
                <path d="M482.6855,939.2301 L513.5495,939.2301" id="Stroke-803" stroke="#231F20" stroke-width="0.25" mask="url(#mask-14)"></path>
                <path d="M482.6855,966.4752 L482.6855,939.4802" id="Stroke-804" stroke="#231F20" stroke-width="0.25" mask="url(#mask-14)"></path>
                <path d="M513.2998,966.4752 L513.2998,939.4802" id="Stroke-805" stroke="#231F20" stroke-width="0.25" mask="url(#mask-14)"></path>
                <path d="M329.3647,966.7252 L360.2287,966.7252" id="Stroke-806" stroke="#231F20" stroke-width="0.25" mask="url(#mask-14)"></path>
                <path d="M360.229,966.7252 L390.843,966.7252" id="Stroke-807" stroke="#231F20" stroke-width="0.25" mask="url(#mask-14)"></path>
                <path d="M390.8433,966.7252 L421.4573,966.7252" id="Stroke-808" stroke="#231F20" stroke-width="0.25" mask="url(#mask-14)"></path>
                <path d="M421.4575,966.7252 L452.0715,966.7252" id="Stroke-809" stroke="#231F20" stroke-width="0.25" mask="url(#mask-14)"></path>
                <path d="M452.0713,966.7252 L482.6853,966.7252" id="Stroke-810" stroke="#231F20" stroke-width="0.25" mask="url(#mask-14)"></path>
                <path d="M482.6855,966.7252 L513.5495,966.7252" id="Stroke-811" stroke="#231F20" stroke-width="0.25" mask="url(#mask-14)"></path>
            </g>
            <text id="X" font-family="AcuminProWide-Semibold, Acumin Pro Wide" font-size="6" font-style="expanded" font-weight="500" fill="#2F2A2B">
                <tspan x="365.2754" y="761.259988">X</tspan>
            </text>
            <text id="X" font-family="AcuminProWide-Semibold, Acumin Pro Wide" font-size="6" font-style="expanded" font-weight="500" fill="#2F2A2B">
                <tspan x="369.9974" y="761.259988">X</tspan>
            </text>
            <text id="V" font-family="AcuminProWide-Semibold, Acumin Pro Wide" font-size="6" font-style="expanded" font-weight="500" fill="#2F2A2B">
                <tspan x="374.6294" y="761.259988">V</tspan>
            </text>
            <text id="III" font-family="AcuminProWide-Semibold, Acumin Pro Wide" font-size="6" font-style="expanded" font-weight="500" letter-spacing="0.021" fill="#2F2A2B">
                <tspan x="379.4654" y="761.259988">II</tspan>
                <tspan x="383.5874" y="761.259988">I</tspan>
            </text>
            <text id="X" font-family="AcuminProWide-Semibold, Acumin Pro Wide" font-size="6" font-style="expanded" font-weight="500" fill="#2F2A2B">
                <tspan x="398.6594" y="761.259988">X</tspan>
            </text>
            <text id="X" font-family="AcuminProWide-Semibold, Acumin Pro Wide" font-size="6" font-style="expanded" font-weight="500" fill="#2F2A2B">
                <tspan x="403.0874" y="761.259988">X</tspan>
            </text>
            <text id="I" font-family="AcuminProWide-Semibold, Acumin Pro Wide" font-size="6" font-style="expanded" font-weight="500" fill="#2F2A2B">
                <tspan x="407.3294" y="761.259988">I</tspan>
            </text>
            <text id="X" font-family="AcuminProWide-Semibold, Acumin Pro Wide" font-size="6" font-style="expanded" font-weight="500" fill="#2F2A2B">
                <tspan x="409.4234" y="761.259988">X</tspan>
            </text>
            <text id="XXX" font-family="AcuminProWide-Semibold, Acumin Pro Wide" font-size="6" font-style="expanded" font-weight="500" letter-spacing="0.035" fill="#2F2A2B">
                <tspan x="430.2254" y="761.259988">XX</tspan>
                <tspan x="439.1514" y="761.259988">X</tspan>
            </text>
            <text id="XXX" font-family="AcuminProWide-Semibold, Acumin Pro Wide" font-size="6" font-style="expanded" font-weight="500" letter-spacing="0.035" fill="#2F2A2B">
                <tspan x="459.8174" y="761.259988">XX</tspan>
                <tspan x="468.7434" y="761.259988">X</tspan>
            </text>
            <text id="I" font-family="AcuminProWide-Semibold, Acumin Pro Wide" font-size="6" font-style="expanded" font-weight="500" fill="#2F2A2B">
                <tspan x="472.9154" y="761.259988">I</tspan>
            </text>
            <text id="6" font-family="AcuminProWide-Semibold, Acumin Pro Wide" font-size="10.5" font-style="expanded" font-weight="500" fill="#2F2A2B">
                <tspan x="372.1396" y="789.910379">6</tspan>
            </text>
            <text id="1" font-family="AcuminProWide-Semibold, Acumin Pro Wide" font-size="10.5" font-style="expanded" font-weight="500" fill="#2F2A2B">
                <tspan x="400.6051" y="789.910379">1</tspan>
            </text>
            <text id="3" font-family="AcuminProWide-Semibold, Acumin Pro Wide" font-size="10.5" font-style="expanded" font-weight="500" fill="#2F2A2B">
                <tspan x="404.9626" y="789.910379">3</tspan>
            </text>
            <text id="2" font-family="AcuminProWide-Semibold, Acumin Pro Wide" font-size="10.5" font-style="expanded" font-weight="500" fill="#2F2A2B">
                <tspan x="430.0156" y="789.910379">2</tspan>
            </text>
            <text id="0" font-family="AcuminProWide-Semibold, Acumin Pro Wide" font-size="10.5" font-style="expanded" font-weight="500" fill="#2F2A2B">
                <tspan x="436.5256" y="789.910379">0</tspan>
            </text>
            <text id="2" font-family="AcuminProWide-Semibold, Acumin Pro Wide" font-size="10.5" font-style="expanded" font-weight="500" fill="#2F2A2B">
                <tspan x="461.1271" y="789.910379">2</tspan>
            </text>
            <text id="7" font-family="AcuminProWide-Semibold, Acumin Pro Wide" font-size="10.5" font-style="expanded" font-weight="500" fill="#2F2A2B">
                <tspan x="467.8051" y="789.910379">7</tspan>
            </text>
            <text id="7" font-family="AcuminProWide-Semibold, Acumin Pro Wide" font-size="10.5" font-style="expanded" font-weight="500" fill="#2F2A2B">
                <tspan x="372.6226" y="817.409879">7</tspan>
            </text>
            <text id="1" font-family="AcuminProWide-Semibold, Acumin Pro Wide" font-size="10.5" font-style="expanded" font-weight="500" fill="#2F2A2B">
                <tspan x="400.5841" y="817.409879">1</tspan>
            </text>
            <text id="4" font-family="AcuminProWide-Semibold, Acumin Pro Wide" font-size="10.5" font-style="expanded" font-weight="500" fill="#2F2A2B">
                <tspan x="404.9416" y="817.409879">4</tspan>
            </text>
            <text id="2" font-family="AcuminProWide-Semibold, Acumin Pro Wide" font-size="10.5" font-style="expanded" font-weight="500" fill="#2F2A2B">
                <tspan x="431.3386" y="817.409879">2</tspan>
            </text>
            <text id="1" font-family="AcuminProWide-Semibold, Acumin Pro Wide" font-size="10.5" font-style="expanded" font-weight="500" fill="#2F2A2B">
                <tspan x="437.9326" y="817.409879">1</tspan>
            </text>
            <text id="2" font-family="AcuminProWide-Semibold, Acumin Pro Wide" font-size="10.5" font-style="expanded" font-weight="500" fill="#2F2A2B">
                <tspan x="460.7176" y="817.409879">2</tspan>
            </text>
            <text id="8" font-family="AcuminProWide-Semibold, Acumin Pro Wide" font-size="10.5" font-style="expanded" font-weight="500" fill="#2F2A2B">
                <tspan x="467.2486" y="817.409879">8</tspan>
            </text>
            <text id="1" font-family="AcuminProWide-Semibold, Acumin Pro Wide" font-size="10.5" font-style="expanded" font-weight="500" fill="#EAAE2E">
                <tspan x="342.7921" y="844.909379">1</tspan>
            </text>
            <text id="8" font-family="AcuminProWide-Semibold, Acumin Pro Wide" font-size="10.5" font-style="expanded" font-weight="500" fill="#2F2A2B">
                <tspan x="372.1396" y="844.909379">8</tspan>
            </text>
            <text id="1" font-family="AcuminProWide-Semibold, Acumin Pro Wide" font-size="10.5" font-style="expanded" font-weight="500" fill="#2F2A2B">
                <tspan x="400.6156" y="844.909379">1</tspan>
            </text>
            <text id="5" font-family="AcuminProWide-Semibold, Acumin Pro Wide" font-size="10.5" font-style="expanded" font-weight="500" fill="#2F2A2B">
                <tspan x="404.8576" y="844.909379">5</tspan>
            </text>
            <text id="2" font-family="AcuminProWide-Semibold, Acumin Pro Wide" font-size="10.5" font-style="expanded" font-weight="500" fill="#2F2A2B">
                <tspan x="430.1941" y="844.909379">2</tspan>
            </text>
            <text id="2" font-family="AcuminProWide-Semibold, Acumin Pro Wide" font-size="10.5" font-style="expanded" font-weight="500" fill="#2F2A2B">
                <tspan x="436.9141" y="844.909379">2</tspan>
            </text>
            <text id="2" font-family="AcuminProWide-Semibold, Acumin Pro Wide" font-size="10.5" font-style="expanded" font-weight="500" fill="#2F2A2B">
                <tspan x="460.7386" y="844.909379">2</tspan>
            </text>
            <text id="9" font-family="AcuminProWide-Semibold, Acumin Pro Wide" font-size="10.5" font-style="expanded" font-weight="500" fill="#2F2A2B">
                <tspan x="467.2801" y="844.909379">9</tspan>
            </text>
            <text id="2" font-family="AcuminProWide-Semibold, Acumin Pro Wide" font-size="10.5" font-style="expanded" font-weight="500" fill="#2F2A2B">
                <tspan x="341.7106" y="872.408879">2</tspan>
            </text>
            <text id="9" font-family="AcuminProWide-Semibold, Acumin Pro Wide" font-size="10.5" font-style="expanded" font-weight="500" fill="#2F2A2B">
                <tspan x="372.1711" y="872.408879">9</tspan>
            </text>
            <text id="1" font-family="AcuminProWide-Semibold, Acumin Pro Wide" font-size="10.5" font-style="expanded" font-weight="500" fill="#2F2A2B">
                <tspan x="400.5841" y="872.408879">1</tspan>
            </text>
            <text id="6" font-family="AcuminProWide-Semibold, Acumin Pro Wide" font-size="10.5" font-style="expanded" font-weight="500" fill="#2F2A2B">
                <tspan x="404.9521" y="872.408879">6</tspan>
            </text>
            <text id="2" font-family="AcuminProWide-Semibold, Acumin Pro Wide" font-size="10.5" font-style="expanded" font-weight="500" fill="#2F2A2B">
                <tspan x="430.1101" y="872.408879">2</tspan>
            </text>
            <text id="3" font-family="AcuminProWide-Semibold, Acumin Pro Wide" font-size="10.5" font-style="expanded" font-weight="500" fill="#2F2A2B">
                <tspan x="436.7041" y="872.408879">3</tspan>
            </text>
            <text id="3" font-family="AcuminProWide-Semibold, Acumin Pro Wide" font-size="10.5" font-style="expanded" font-weight="500" fill="#2F2A2B">
                <tspan x="460.4971" y="872.408879">3</tspan>
            </text>
            <text id="0" font-family="AcuminProWide-Semibold, Acumin Pro Wide" font-size="10.5" font-style="expanded" font-weight="500" fill="#2F2A2B">
                <tspan x="467.2801" y="872.408879">0</tspan>
            </text>
            <text id="3" font-family="AcuminProWide-Semibold, Acumin Pro Wide" font-size="10.5" font-style="expanded" font-weight="500" fill="#2F2A2B">
                <tspan x="341.5636" y="899.908379">3</tspan>
            </text>
            <text id="1" font-family="AcuminProWide-Semibold, Acumin Pro Wide" font-size="10.5" font-style="expanded" font-weight="500" fill="#2F2A2B">
                <tspan x="369.8821" y="899.908379">1</tspan>
            </text>
            <text id="0" font-family="AcuminProWide-Semibold, Acumin Pro Wide" font-size="10.5" font-style="expanded" font-weight="500" fill="#2F2A2B">
                <tspan x="374.2081" y="899.908379">0</tspan>
            </text>
            <text id="1" font-family="AcuminProWide-Semibold, Acumin Pro Wide" font-size="10.5" font-style="expanded" font-weight="500" fill="#2F2A2B">
                <tspan x="400.9936" y="899.908379">1</tspan>
            </text>
            <text id="7" font-family="AcuminProWide-Semibold, Acumin Pro Wide" font-size="10.5" font-style="expanded" font-weight="500" fill="#2F2A2B">
                <tspan x="405.4876" y="899.908379">7</tspan>
            </text>
            <text id="2" font-family="AcuminProWide-Semibold, Acumin Pro Wide" font-size="10.5" font-style="expanded" font-weight="500" fill="#2F2A2B">
                <tspan x="430.1206" y="899.908379">2</tspan>
            </text>
            <text id="4" font-family="AcuminProWide-Semibold, Acumin Pro Wide" font-size="10.5" font-style="expanded" font-weight="500" fill="#2F2A2B">
                <tspan x="436.6411" y="899.908379">4</tspan>
            </text>
            <text id="31" font-family="AcuminProWide-Semibold, Acumin Pro Wide" font-size="10.5" font-style="expanded" font-weight="500" fill="#2F2A2B">
                <tspan x="461.8831" y="899.908379">31</tspan>
            </text>
            <text id="4" font-family="AcuminProWide-Semibold, Acumin Pro Wide" font-size="10.5" font-style="expanded" font-weight="500" fill="#2F2A2B">
                <tspan x="341.5426" y="927.407879">4</tspan>
            </text>
            <text id="1" font-family="AcuminProWide-Semibold, Acumin Pro Wide" font-size="10.5" font-style="expanded" font-weight="500" fill="#2F2A2B">
                <tspan x="371.2996" y="927.407879">1</tspan>
            </text>
            <text id="1" font-family="AcuminProWide-Semibold, Acumin Pro Wide" font-size="10.5" font-style="expanded" font-weight="500" fill="#2F2A2B">
                <tspan x="375.5311" y="927.407879">1</tspan>
            </text>
            <text id="1" font-family="AcuminProWide-Semibold, Acumin Pro Wide" font-size="10.5" font-style="expanded" font-weight="500" fill="#2F2A2B">
                <tspan x="400.5631" y="927.407879">1</tspan>
            </text>
            <text id="8" font-family="AcuminProWide-Semibold, Acumin Pro Wide" font-size="10.5" font-style="expanded" font-weight="500" fill="#2F2A2B">
                <tspan x="404.9521" y="927.407879">8</tspan>
            </text>
            <text id="25" font-family="AcuminProWide-Semibold, Acumin Pro Wide" font-size="10.5" font-style="expanded" font-weight="500" fill="#2F2A2B">
                <tspan x="430.1416" y="927.407879">25</tspan>
            </text>
            <text id="5" font-family="AcuminProWide-Semibold, Acumin Pro Wide" font-size="10.5" font-style="expanded" font-weight="500" fill="#EAAE2E">
                <tspan x="341.5216" y="954.907379">5</tspan>
            </text>
            <text id="1" font-family="AcuminProWide-Semibold, Acumin Pro Wide" font-size="10.5" font-style="expanded" font-weight="500" fill="#EAAE2E">
                <tspan x="370.1131" y="954.907379">1</tspan>
            </text>
            <text id="2" font-family="AcuminProWide-Semibold, Acumin Pro Wide" font-size="10.5" font-style="expanded" font-weight="500" fill="#EAAE2E">
                <tspan x="374.5651" y="954.907379">2</tspan>
            </text>
            <text id="1" font-family="AcuminProWide-Semibold, Acumin Pro Wide" font-size="10.5" font-style="expanded" font-weight="500" fill="#EAAE2E">
                <tspan x="400.6261" y="954.907379">1</tspan>
            </text>
            <text id="9" font-family="AcuminProWide-Semibold, Acumin Pro Wide" font-size="10.5" font-style="expanded" font-weight="500" fill="#EAAE2E">
                <tspan x="404.9836" y="954.907379">9</tspan>
            </text>
            <text id="26" font-family="AcuminProWide-Semibold, Acumin Pro Wide" font-size="10.5" font-style="expanded" font-weight="500" fill="#EAAE2E">
                <tspan x="430.1836" y="954.907379">26</tspan>
            </text>
            <g id="Group-914" transform="translate(0.000000, 0.550000)">
                <path d="M456.248,979.317 C456.248,980.094 456.805,980.577 457.644,980.588 C458.547,980.588 459.072,980.105 459.072,979.391 C459.072,978.709 458.705,977.973 457.644,977.973 C456.741,977.973 456.248,978.53 456.248,979.317 Z M456.353,982.541 C456.542,983.012 456.889,983.37 457.665,983.37 C458.915,983.37 459.187,982.099 459.24,981.029 C458.831,981.511 458.232,981.763 457.382,981.763 C455.766,981.763 454.705,980.787 454.705,979.38 C454.705,977.942 455.828,976.797 457.665,976.797 C459.744,976.797 460.752,978.215 460.752,980.409 C460.752,982.11 460.29,984.504 457.634,984.504 C455.682,984.504 454.999,983.412 454.8,982.541 L456.353,982.541 Z M451.454,984.356 L451.454,978.698 C451.086,978.908 450.194,979.087 449.858,979.107 L449.858,978.026 C450.792,977.838 451.517,977.365 451.884,976.945 L453.018,976.945 L453.018,984.356 L451.454,984.356 Z M443.933,980.629 C443.933,981.847 444.31,983.306 445.528,983.306 C446.809,983.306 447.102,981.942 447.102,980.588 C447.102,979.433 446.788,977.984 445.539,977.984 C444.31,977.984 443.933,979.181 443.933,980.629 Z M448.646,980.577 C448.646,982.74 447.732,984.504 445.518,984.504 C443.439,984.504 442.379,982.782 442.379,980.651 C442.379,978.572 443.397,976.797 445.539,976.797 C447.575,976.797 448.646,978.383 448.646,980.577 Z M435.342,984.356 L435.342,984.314 C435.342,982.771 436.255,981.701 437.851,980.724 C439.132,979.947 439.457,979.706 439.457,979.045 C439.457,978.415 439.059,977.973 438.219,977.973 C437.295,977.973 436.937,978.541 436.832,979.265 L435.363,979.265 C435.51,977.869 436.381,976.797 438.26,976.797 C440.118,976.797 440.99,977.827 440.99,979.034 C440.99,980.157 440.454,980.713 438.995,981.564 C438.061,982.088 437.399,982.634 437.221,983.118 L441.347,983.118 L441.147,984.356 L435.342,984.356 Z M425.041,980.609 C425.041,982.068 425.839,983.275 427.413,983.275 C429.009,983.275 429.702,981.984 429.702,980.64 C429.702,979.255 428.957,978.015 427.34,978.015 C425.808,978.015 425.041,979.255 425.041,980.609 Z M431.351,980.619 C431.351,982.687 429.965,984.514 427.329,984.514 C424.862,984.514 423.403,982.793 423.403,980.629 C423.403,978.583 424.926,976.788 427.393,976.788 C429.912,976.788 431.351,978.593 431.351,980.619 Z M420.067,984.356 L421.621,984.356 L421.621,976.945 L420.067,976.945 L420.067,984.356 Z M417.987,984.356 L416.843,984.356 C416.801,984.188 416.748,983.779 416.738,983.485 C416.255,984.126 415.583,984.514 414.165,984.514 C411.783,984.514 410.418,982.897 410.418,980.682 C410.418,978.509 411.867,976.788 414.449,976.788 C416.78,976.788 417.788,978.026 418.008,979.107 L416.433,979.107 C416.244,978.635 415.74,977.984 414.449,977.984 C412.822,977.984 412.056,979.139 412.056,980.609 C412.056,982.152 412.843,983.306 414.459,983.306 C415.803,983.306 416.475,982.614 416.475,981.543 L416.475,981.396 L414.48,981.396 L414.48,980.168 L417.987,980.168 L417.987,984.356 Z M408.8,984.356 L407.655,984.356 C407.613,984.188 407.56,983.779 407.55,983.485 C407.067,984.126 406.395,984.514 404.978,984.514 C402.595,984.514 401.23,982.897 401.23,980.682 C401.23,978.509 402.679,976.788 405.262,976.788 C407.592,976.788 408.6,978.026 408.82,979.107 L407.246,979.107 C407.057,978.635 406.553,977.984 405.262,977.984 C403.635,977.984 402.868,979.139 402.868,980.609 C402.868,982.152 403.655,983.306 405.272,983.306 C406.616,983.306 407.288,982.614 407.288,981.543 L407.288,981.396 L405.293,981.396 L405.293,980.168 L408.8,980.168 L408.8,984.356 Z M397.706,981.228 C396.95,979.412 396.582,978.519 396.404,977.973 L396.394,977.973 C396.236,978.499 395.806,979.674 395.186,981.228 L397.706,981.228 Z M394.766,982.488 L394.021,984.356 L392.415,984.356 L395.47,976.945 L397.433,976.945 L400.635,984.356 L398.944,984.356 L398.157,982.488 L394.766,982.488 Z M389.578,981.396 C389.578,980.084 389.578,978.761 389.62,977.953 L389.61,977.953 C389.242,979.244 388.36,981.69 387.426,984.356 L386.061,984.356 C385.337,982.068 384.361,979.286 383.962,977.953 L383.951,977.953 C384.004,978.813 384.067,980.294 384.067,981.553 L384.067,984.356 L382.66,984.356 L382.66,976.945 L384.896,976.945 C385.736,979.275 386.607,981.627 386.828,982.53 L386.838,982.53 C387.164,981.449 388.024,979.171 388.822,976.945 L391.08,976.945 L391.08,984.356 L389.578,984.356 L389.578,981.396 Z" id="Fill-813" fill="#231F20"></path>
                <mask id="mask-16" fill="white">
                    <use xlink:href="#path-15"></use>
                </mask>
                <g id="Clip-816"></g>
            </g>
        </g>
    </g>
</svg>