[
  {
    "sigla": "AG",
    "provincia": "Agrigento",
    "regione": "Sicilia"
  },
  {
    "sigla": "AL",
    "provincia": "Alessandria",
    "regione": "Piemonte"
  },
  {
    "sigla": "AN",
    "provincia": "Ancona",
    "regione": "Marche"
  },
  {
    "sigla": "AO",
    "provincia": "Aosta",
    "regione": "Valle d'Aosta"
  },
  {
    "sigla": "AQ",
    "provincia": "L'Aquila",
    "regione": "Abruzzo"
  },
  {
    "sigla": "AR",
    "provincia": "Arezzo",
    "regione": "Toscana"
  },
  {
    "sigla": "AP",
    "provincia": "Ascoli-Piceno",
    "regione": "Marche"
  },
  {
    "sigla": "AT",
    "provincia": "Asti",
    "regione": "Piemonte"
  },
  {
    "sigla": "AV",
    "provincia": "Avellino",
    "regione": "Campania"
  },
  {
    "sigla": "BA",
    "provincia": "Bari",
    "regione": "Puglia"
  },
  {
    "sigla": "BT",
    "provincia": "Barletta-Andria-Trani",
    "regione": "Puglia"
  },
  {
    "sigla": "BL",
    "provincia": "Belluno",
    "regione": "Veneto"
  },
  {
    "sigla": "BN",
    "provincia": "Benevento",
    "regione": "Campania"
  },
  {
    "sigla": "BG",
    "provincia": "Bergamo",
    "regione": "Lombardia"
  },
  {
    "sigla": "BI",
    "provincia": "Biella",
    "regione": "Piemonte"
  },
  {
    "sigla": "BO",
    "provincia": "Bologna",
    "regione": "Emilia Romagna"
  },
  {
    "sigla": "BZ",
    "provincia": "Bolzano",
    "regione": "Trentino Alto Adige"
  },
  {
    "sigla": "BS",
    "provincia": "Brescia",
    "regione": "Lombardia"
  },
  {
    "sigla": "BR",
    "provincia": "Brindisi",
    "regione": "Puglia"
  },
  {
    "sigla": "CA",
    "provincia": "Cagliari",
    "regione": "Sardegna"
  },
  {
    "sigla": "CL",
    "provincia": "Caltanissetta",
    "regione": "Sicilia"
  },
  {
    "sigla": "CB",
    "provincia": "Campobasso",
    "regione": "Molise"
  },
  {
    "sigla": "CI",
    "provincia": "Carbonia Iglesias",
    "regione": "Sardegna"
  },
  {
    "sigla": "CE",
    "provincia": "Caserta",
    "regione": "Campania"
  },
  {
    "sigla": "CT",
    "provincia": "Catania",
    "regione": "Sicilia"
  },
  {
    "sigla": "CZ",
    "provincia": "Catanzaro",
    "regione": "Calabria"
  },
  {
    "sigla": "CH",
    "provincia": "Chieti",
    "regione": "Abruzzo"
  },
  {
    "sigla": "CO",
    "provincia": "Como",
    "regione": "Lombardia"
  },
  {
    "sigla": "CS",
    "provincia": "Cosenza",
    "regione": "Calabria"
  },
  {
    "sigla": "CR",
    "provincia": "Cremona",
    "regione": "Lombardia"
  },
  {
    "sigla": "KR",
    "provincia": "Crotone",
    "regione": "Calabria"
  },
  {
    "sigla": "CN",
    "provincia": "Cuneo",
    "regione": "Piemonte"
  },
  {
    "sigla": "EN",
    "provincia": "Enna",
    "regione": "Sicilia"
  },
  {
    "sigla": "FM",
    "provincia": "Fermo",
    "regione": "Marche"
  },
  {
    "sigla": "FE",
    "provincia": "Ferrara",
    "regione": "Emilia Romagna"
  },
  {
    "sigla": "FI",
    "provincia": "Firenze",
    "regione": "Toscana"
  },
  {
    "sigla": "FG",
    "provincia": "Foggia",
    "regione": "Puglia"
  },
  {
    "sigla": "FC",
    "provincia": "Forli-Cesena",
    "regione": "Emilia Romagna"
  },
  {
    "sigla": "FR",
    "provincia": "Frosinone",
    "regione": "Lazio"
  },
  {
    "sigla": "GE",
    "provincia": "Genova",
    "regione": "Liguria"
  },
  {
    "sigla": "GO",
    "provincia": "Gorizia",
    "regione": "Friuli Venezia Giulia"
  },
  {
    "sigla": "GR",
    "provincia": "Grosseto",
    "regione": "Toscana"
  },
  {
    "sigla": "IM",
    "provincia": "Imperia",
    "regione": "Liguria"
  },
  {
    "sigla": "IS",
    "provincia": "Isernia",
    "regione": "Molise"
  },
  {
    "sigla": "SP",
    "provincia": "La-Spezia",
    "regione": "Liguria"
  },
  {
    "sigla": "LT",
    "provincia": "Latina",
    "regione": "Lazio"
  },
  {
    "sigla": "LE",
    "provincia": "Lecce",
    "regione": "Puglia"
  },
  {
    "sigla": "LC",
    "provincia": "Lecco",
    "regione": "Lombardia"
  },
  {
    "sigla": "LI",
    "provincia": "Livorno",
    "regione": "Toscana"
  },
  {
    "sigla": "LO",
    "provincia": "Lodi",
    "regione": "Lombardia"
  },
  {
    "sigla": "LU",
    "provincia": "Lucca",
    "regione": "Toscana"
  },
  {
    "sigla": "MC",
    "provincia": "Macerata",
    "regione": "Marche"
  },
  {
    "sigla": "MN",
    "provincia": "Mantova",
    "regione": "Lombardia"
  },
  {
    "sigla": "MS",
    "provincia": "Massa-Carrara",
    "regione": "Toscana"
  },
  {
    "sigla": "MT",
    "provincia": "Matera",
    "regione": "Basilicata"
  },
  {
    "sigla": "VS",
    "provincia": "Medio Campidano",
    "regione": "Sardegna"
  },
  {
    "sigla": "ME",
    "provincia": "Messina",
    "regione": "Sicilia"
  },
  {
    "sigla": "MI",
    "provincia": "Milano",
    "regione": "Lombardia"
  },
  {
    "sigla": "MO",
    "provincia": "Modena",
    "regione": "Emilia Romagna"
  },
  {
    "sigla": "MB",
    "provincia": "Monza-Brianza",
    "regione": "Lombardia"
  },
  {
    "sigla": "NA",
    "provincia": "Napoli",
    "regione": "Campania"
  },
  {
    "sigla": "NO",
    "provincia": "Novara",
    "regione": "Piemonte"
  },
  {
    "sigla": "NU",
    "provincia": "Nuoro",
    "regione": "Sardegna"
  },
  {
    "sigla": "OG",
    "provincia": "Ogliastra",
    "regione": "Sardegna"
  },
  {
    "sigla": "OT",
    "provincia": "Olbia Tempio",
    "regione": "Sardegna"
  },
  {
    "sigla": "OR",
    "provincia": "Oristano",
    "regione": "Sardegna"
  },
  {
    "sigla": "PD",
    "provincia": "Padova",
    "regione": "Veneto"
  },
  {
    "sigla": "PA",
    "provincia": "Palermo",
    "regione": "Sicilia"
  },
  {
    "sigla": "PR",
    "provincia": "Parma",
    "regione": "Emilia Romagna"
  },
  {
    "sigla": "PV",
    "provincia": "Pavia",
    "regione": "Lombardia"
  },
  {
    "sigla": "PG",
    "provincia": "Perugia",
    "regione": "Umbria"
  },
  {
    "sigla": "PU",
    "provincia": "Pesaro-Urbino",
    "regione": "Marche"
  },
  {
    "sigla": "PE",
    "provincia": "Pescara",
    "regione": "Abruzzo"
  },
  {
    "sigla": "PC",
    "provincia": "Piacenza",
    "regione": "Emilia Romagna"
  },
  {
    "sigla": "PI",
    "provincia": "Pisa",
    "regione": "Toscana"
  },
  {
    "sigla": "PT",
    "provincia": "Pistoia",
    "regione": "Toscana"
  },
  {
    "sigla": "PN",
    "provincia": "Pordenone",
    "regione": "Friuli Venezia Giulia"
  },
  {
    "sigla": "PZ",
    "provincia": "Potenza",
    "regione": "Basilicata"
  },
  {
    "sigla": "PO",
    "provincia": "Prato",
    "regione": "Toscana"
  },
  {
    "sigla": "RG",
    "provincia": "Ragusa",
    "regione": "Sicilia"
  },
  {
    "sigla": "RA",
    "provincia": "Ravenna",
    "regione": "Emilia Romagna"
  },
  {
    "sigla": "RC",
    "provincia": "Reggio-Calabria",
    "regione": "Calabria"
  },
  {
    "sigla": "RE",
    "provincia": "Reggio-Emilia",
    "regione": "Emilia Romagna"
  },
  {
    "sigla": "RI",
    "provincia": "Rieti",
    "regione": "Lazio"
  },
  {
    "sigla": "RN",
    "provincia": "Rimini",
    "regione": "Emilia Romagna"
  },
  {
    "sigla": "Roma",
    "provincia": "Roma",
    "regione": "Lazio"
  },
  {
    "sigla": "RO",
    "provincia": "Rovigo",
    "regione": "Veneto"
  },
  {
    "sigla": "SA",
    "provincia": "Salerno",
    "regione": "Campania"
  },
  {
    "sigla": "SS",
    "provincia": "Sassari",
    "regione": "Sardegna"
  },
  {
    "sigla": "SV",
    "provincia": "Savona",
    "regione": "Liguria"
  },
  {
    "sigla": "SI",
    "provincia": "Siena",
    "regione": "Toscana"
  },
  {
    "sigla": "SR",
    "provincia": "Siracusa",
    "regione": "Sicilia"
  },
  {
    "sigla": "SO",
    "provincia": "Sondrio",
    "regione": "Lombardia"
  },
  {
    "sigla": "TA",
    "provincia": "Taranto",
    "regione": "Puglia"
  },
  {
    "sigla": "TE",
    "provincia": "Teramo",
    "regione": "Abruzzo"
  },
  {
    "sigla": "TR",
    "provincia": "Terni",
    "regione": "Umbria"
  },
  {
    "sigla": "TO",
    "provincia": "Torino",
    "regione": "Piemonte"
  },
  {
    "sigla": "TP",
    "provincia": "Trapani",
    "regione": "Sicilia"
  },
  {
    "sigla": "TN",
    "provincia": "Trento",
    "regione": "Trentino Alto Adige"
  },
  {
    "sigla": "TV",
    "provincia": "Treviso",
    "regione": "Veneto"
  },
  {
    "sigla": "TS",
    "provincia": "Trieste",
    "regione": "Friuli Venezia Giulia"
  },
  {
    "sigla": "UD",
    "provincia": "Udine",
    "regione": "Friuli Venezia Giulia"
  },
  {
    "sigla": "VA",
    "provincia": "Varese",
    "regione": "Lombardia"
  },
  {
    "sigla": "VE",
    "provincia": "Venezia",
    "regione": "Veneto"
  },
  {
    "sigla": "VB",
    "provincia": "Verbania",
    "regione": "Piemonte"
  },
  {
    "sigla": "VC",
    "provincia": "Vercelli",
    "regione": "Piemonte"
  },
  {
    "sigla": "VR",
    "provincia": "Verona",
    "regione": "Veneto"
  },
  {
    "sigla": "VV",
    "provincia": "Vibo-Valentia",
    "regione": "Calabria"
  },
  {
    "sigla": "VI",
    "provincia": "Vicenza",
    "regione": "Veneto"
  },
  {
    "sigla": "VT",
    "provincia": "Viterbo",
    "regione": "Lazio"
  }
]