<?xml version="1.0" encoding="UTF-8"?>
<svg width="15px" height="13px" viewBox="0 0 15 13" version="1.1" xmlns="http://www.w3.org/2000/svg" xmlns:xlink="http://www.w3.org/1999/xlink">
    <!-- Generator: Sketch 51.1 (57501) - http://www.bohemiancoding.com/sketch -->
    <title>eye</title>
    <desc>Created with Sketch.</desc>
    <defs></defs>
    <g id="eye" stroke="none" stroke-width="1" fill="none" fill-rule="evenodd">
        <path d="M13.5,6.5 C12.164,8.56251 10.008,10.00001 7.5,10.00001 C4.992,10.00001 2.836,8.56251 1.5,6.5 C2.242,5.35156 3.258,4.36719 4.477,3.74219 C4.164,4.27344 4,4.88281 4,5.5 C4,7.42969 5.57,9.00001 7.5,9.00001 C9.43,9.00001 11,7.42969 11,5.5 C11,4.88281 10.836,4.27344 10.523,3.74219 C11.742,4.36719 12.758,5.35156 13.5,6.5 Z M7.875,3.5 C7.875,3.70313 7.703,3.875 7.5,3.875 C6.609,3.875 5.875,4.60938 5.875,5.5 C5.875,5.70313 5.703,5.875 5.5,5.875 C5.297,5.875 5.125,5.70313 5.125,5.5 C5.125,4.19531 6.195,3.125 7.5,3.125 C7.703,3.125 7.875,3.29687 7.875,3.5 Z M14.5,6.5 C14.5,6.30469 14.438,6.125 14.344,5.96094 C12.906,3.60156 10.273,2 7.5,2 C4.727,2 2.094,3.60156 0.656,5.96094 C0.563,6.125 0.5,6.30469 0.5,6.5 C0.5,6.69532 0.563,6.875 0.656,7.03907 C2.094,9.39844 4.727,11.00001 7.5,11.00001 C10.273,11.00001 12.906,9.40626 14.344,7.03907 C14.438,6.875 14.5,6.69532 14.5,6.5 Z" id="Fill-52" fill="#000000"></path>
    </g>
</svg>