<?xml version="1.0" encoding="UTF-8"?>
<svg width="22px" height="16px" viewBox="0 0 22 16" version="1.1" xmlns="http://www.w3.org/2000/svg" xmlns:xlink="http://www.w3.org/1999/xlink">
    <title>share-video</title>
    <g id="share-video" stroke="none" stroke-width="1" fill="none" fill-rule="evenodd">
        <path d="M3.3032379,14.6045132 C5.55147444,11.9902847 9.91723609,11.7288619 11.6687692,11.7550041 L11.6687692,13.5326795 C11.6687692,14.2452653 11.9341551,14.6759517 12.4570008,14.8850899 C12.9240571,15.0750689 13.5510137,15.0227898 13.943148,14.6567978 L20.8969959,8.77478362 C21.632007,8.17341089 21.632007,7.43687409 20.8708536,6.81411222 L13.9170057,1.27194773 C13.1369593,0.647910615 11.6949115,0.958240308 11.6949115,2.36992372 L11.6949115,4.33059511 C3.8522259,6.00370137 1.7085585,10.7877396 1.13342822,13.5326795 C0.764493048,14.6725213 2.36713059,15.4608895 3.3032379,14.6045132 Z M12.662176,6.26512423 C13.6064544,6.07626855 13.7862943,5.57108922 13.7862943,4.76815315 L13.7862943,3.86003398 L18.8056131,7.83366135 L13.7862943,12.0687116 L13.7862943,10.9968779 C13.7862943,10.0897972 13.5743827,9.77110567 12.5576069,9.6897636 C12.3484686,9.66362132 11.9824766,9.66362132 11.5119155,9.66362132 C9.86495152,9.66362132 6.44846801,9.6897636 4.08187511,11.5528762 C5.31056252,9.56606249 7.90428012,7.15396193 12.662176,6.26512423 Z" id="share" fill="#0077B9" fill-rule="nonzero"></path>
    </g>
</svg>