Previewfiles: 

----

Title: Officine Popolari

----

Imgdisciplina: 

----

Nome: 

----

Capolettera: 

----

Docenterappresentante: 

----

Snimgfile: 

----

Sntitle: 

----

Sndesc: 

----

Testo: 