<?xml version="1.0" encoding="UTF-8"?>
<svg width="258px" height="74px" viewBox="0 0 258 74" version="1.1" xmlns="http://www.w3.org/2000/svg" xmlns:xlink="http://www.w3.org/1999/xlink">
    <title>logo-2-lines</title>
    <g id="logo-2-lines" stroke="none" stroke-width="1" fill="none" fill-rule="evenodd">
        <path d="M9.28,29.64 C14.368,29.64 17.76,26.056 17.76,21.512 C17.76,18.728 16.704,16.712 13.184,15.08 L7.712,12.488 C6.016,11.656 5.472,10.664 5.472,9.608 C5.472,8.552 6.304,7.368 8.64,7.368 C11.424,7.368 14.272,9.256 15.552,13.192 L15.712,13.192 L18.016,7.944 C16.128,6.888 12.8,5.96 9.92,5.96 C3.52,5.96 1.312,9.768 1.312,13.256 C1.312,16.072 2.944,18.696 6.08,20.168 L11.392,22.6 C13.248,23.432 13.664,24.392 13.664,25.416 C13.664,27.112 12.32,28.168 10.496,28.168 C7.264,28.168 3.776,25.864 2.656,21.384 L2.496,21.384 L0.48,27.496 C2.784,28.808 5.696,29.64 9.28,29.64 Z M26.752,29.48 C30.4,29.48 33.12,26.76 33.376,22.792 L33.184,22.728 C32.384,24.136 31.104,24.68 29.312,24.68 C25.472,24.68 23.808,21.224 23.808,18.504 C23.808,15.944 24.896,13.96 27.488,13.96 C29.344,13.96 30.88,15.4 31.072,18.856 L31.232,18.888 L33.664,13.096 C32.16,12.264 30.112,11.72 27.84,11.72 C22.784,11.72 19.296,15.624 19.296,20.904 C19.296,26.024 22.336,29.48 26.752,29.48 Z M40.48,29.48 C42.752,29.48 44.256,27.944 44.832,26.12 L44.832,29 L52.48,29 L52.48,28.84 C51.584,28.456 50.912,28.072 50.912,26.44 L50.912,11.72 L43.744,12.872 L43.744,13.032 C44.544,13.384 44.832,14.12 44.832,15.72 L44.832,25.608 C44.608,25.992 44.224,26.28 43.616,26.28 C42.656,26.28 42.112,25.672 42.112,24.456 L42.112,11.72 L34.464,12.968 L34.464,13.128 C35.616,13.48 36.032,14.152 36.032,15.752 L36.032,24.392 C36.032,28.104 37.888,29.48 40.48,29.48 Z M62.688,29.48 C67.776,29.48 71.456,25.864 71.456,20.584 C71.456,15.304 67.776,11.72 62.688,11.72 C57.6,11.72 53.92,15.304 53.92,20.584 C53.92,25.864 57.6,29.48 62.688,29.48 Z M62.688,28.2 C61.056,28.2 60.32,26.184 60.32,20.584 C60.32,14.984 61.056,12.968 62.688,12.968 C64.32,12.968 65.056,14.984 65.056,20.584 C65.056,26.184 64.32,28.2 62.688,28.2 Z M81.792,29 L81.792,28.84 C80.896,28.456 80.224,27.752 80.224,26.44 L80.224,5.64 L72.576,7.976 L72.576,8.136 C73.696,8.52 74.144,9.32 74.144,10.536 L74.144,26.44 C74.144,27.752 73.472,28.456 72.576,28.84 L72.576,29 L81.792,29 Z M95.648,29.48 C98.144,29.48 100.192,28.04 100.736,25 L100.416,24.968 C100.128,26.024 99.392,26.28 98.88,26.28 C98.24,26.28 97.664,25.8 97.664,24.68 L97.664,19.048 C97.664,14.76 95.744,11.72 91.04,11.72 C86.944,11.72 84.384,14.12 83.84,18.024 L84.064,18.088 C84.896,15.656 86.24,14.888 88.224,14.888 C90.88,14.888 91.584,16.648 91.584,18.664 L91.584,19.208 L89.472,19.656 C85.664,20.456 83.232,22.44 83.232,25.352 C83.232,27.496 84.768,29.48 87.424,29.48 C89.696,29.48 91.168,28.232 91.68,26.568 L91.776,26.6 C92.096,28.36 93.408,29.48 95.648,29.48 Z M90.688,26.28 C89.504,26.28 88.704,25.288 88.704,23.656 C88.704,21.96 89.312,20.616 91.136,20.264 L91.584,20.168 L91.584,25.928 C91.392,26.184 91.104,26.28 90.688,26.28 Z M199.36,11.464 C201.152,11.464 202.528,10.056 202.528,8.328 C202.528,6.568 201.152,5.16 199.36,5.16 C197.568,5.16 196.192,6.568 196.192,8.328 C196.192,10.056 197.568,11.464 199.36,11.464 Z M204.128,29 L204.128,28.84 C203.232,28.456 202.56,27.752 202.56,26.44 L202.56,11.72 L194.912,13.896 L194.912,14.056 C196.064,14.408 196.48,15.08 196.48,16.616 L196.48,26.44 C196.48,27.752 195.808,28.456 194.912,28.84 L194.912,29 L204.128,29 Z M214.336,29.48 C219.424,29.48 223.104,25.864 223.104,20.584 C223.104,15.304 219.424,11.72 214.336,11.72 C209.248,11.72 205.568,15.304 205.568,20.584 C205.568,25.864 209.248,29.48 214.336,29.48 Z M214.336,28.2 C212.704,28.2 211.968,26.184 211.968,20.584 C211.968,14.984 212.704,12.968 214.336,12.968 C215.968,12.968 216.704,14.984 216.704,20.584 C216.704,26.184 215.968,28.2 214.336,28.2 Z M233.952,29 L233.952,28.84 C232.768,28.584 231.744,28.008 231.744,26.44 L231.744,22.216 C231.744,18.088 233.12,17.128 235.168,17.128 C236.16,17.128 236.64,17.256 237.056,17.512 L237.216,17.512 L237.216,11.72 L236.736,11.72 C233.984,11.72 231.904,13.832 231.68,19.592 L231.488,19.592 L231.488,11.72 L224.096,13.928 L224.096,14.088 C225.184,14.44 225.664,15.304 225.664,17.032 L225.664,26.44 C225.664,27.752 224.992,28.456 224.096,28.84 L224.096,29 L233.952,29 Z M245.632,29.48 C248.192,29.48 251.52,28.008 252.384,23.08 L252.128,23.016 C251.264,24.232 250.08,24.712 248.48,24.712 C245.632,24.712 243.712,22.856 243.232,19.24 L252.448,19.24 C252.448,13.16 248.576,11.72 245.856,11.72 C241.504,11.72 238.336,15.56 238.336,20.936 C238.336,26.536 241.952,29.48 245.632,29.48 Z M247.104,18.248 L243.136,18.248 C243.104,17.96 243.104,17.672 243.104,17.352 C243.104,14.472 243.84,12.776 245.152,12.776 C246.432,12.776 247.104,14.024 247.104,18.248 Z M6.656,66.48 C9.056,66.48 10.496,64.976 11.104,63.152 L11.104,66 L18.752,66 L18.752,65.84 C17.856,65.456 17.184,65.072 17.184,63.44 L17.184,42.64 L8.736,45.232 L8.736,45.392 C10.4,45.392 11.104,46.32 11.104,47.504 L11.104,49.36 C10.592,48.976 9.888,48.72 8.768,48.72 C4.288,48.72 0.96,52.656 0.96,58.224 C0.96,63.056 3.104,66.48 6.656,66.48 Z M9.952,63.28 C8.672,63.28 7.52,60.912 7.52,56.592 C7.52,52.752 8.48,49.808 10.176,49.808 C10.56,49.808 10.848,49.872 11.104,50.128 L11.104,62.608 C10.912,62.992 10.592,63.28 9.952,63.28 Z M23.616,52.24 L25.728,46.864 C25.888,46.416 26.016,45.712 26.016,45.296 C25.984,43.856 24.896,42.64 23.328,42.64 C21.792,42.64 20.704,43.856 20.672,45.296 C20.672,45.712 20.8,46.416 20.96,46.864 L23.072,52.24 L23.616,52.24 Z M32.96,66 L32.96,65.84 C31.712,65.2 30.912,64.016 31.616,61.936 L32.96,57.936 L39.84,57.936 L40.864,61.008 C41.728,63.632 41.216,65.104 39.776,65.84 L39.776,66 L51.232,66 L51.232,65.84 C49.856,65.232 49.216,64.112 48.608,62.384 L41.952,43.6 L36.64,43.6 L30.336,61.744 C29.536,64.016 28.832,65.232 27.456,65.84 L27.456,66 L32.96,66 Z M39.488,56.912 L33.312,56.912 L36.416,47.696 L39.488,56.912 Z M62.048,66 L62.048,65.84 C60.864,65.584 59.84,65.008 59.84,63.44 L59.84,59.216 C59.84,55.088 61.216,54.128 63.264,54.128 C64.256,54.128 64.736,54.256 65.152,54.512 L65.312,54.512 L65.312,48.72 L64.832,48.72 C62.08,48.72 60,50.832 59.776,56.592 L59.584,56.592 L59.584,48.72 L52.192,50.928 L52.192,51.088 C53.28,51.44 53.76,52.304 53.76,54.032 L53.76,63.44 C53.76,64.752 53.088,65.456 52.192,65.84 L52.192,66 L62.048,66 Z M72.704,66.48 C76.032,66.48 77.952,64.112 78.656,61.744 L78.368,61.648 C78.08,62.448 77.376,63.28 76.128,63.28 C75.008,63.28 74.4,62.384 74.4,61.008 L74.4,50.064 L77.344,50.064 L77.344,49.264 L74.4,49.264 L74.4,43.664 L74.368,43.664 C71.84,45.872 69.216,47.824 66.752,49.936 L66.752,50.096 L68.32,50.096 L68.32,61.872 C68.32,64.528 69.664,66.48 72.704,66.48 Z M86.752,66.48 C89.312,66.48 92.64,65.008 93.504,60.08 L93.248,60.016 C92.384,61.232 91.2,61.712 89.6,61.712 C86.752,61.712 84.832,59.856 84.352,56.24 L93.568,56.24 C93.568,50.16 89.696,48.72 86.976,48.72 C82.624,48.72 79.456,52.56 79.456,57.936 C79.456,63.536 83.072,66.48 86.752,66.48 Z M88.224,55.248 L84.256,55.248 C84.224,54.96 84.224,54.672 84.224,54.352 C84.224,51.472 84.96,49.776 86.272,49.776 C87.552,49.776 88.224,51.024 88.224,55.248 Z M106.592,66 L106.592,65.84 C105.344,65.2 104.544,64.016 105.248,61.936 L106.592,57.936 L113.472,57.936 L114.496,61.008 C115.36,63.632 114.848,65.104 113.408,65.84 L113.408,66 L124.864,66 L124.864,65.84 C123.488,65.232 122.848,64.112 122.24,62.384 L115.584,43.6 L110.272,43.6 L103.968,61.744 C103.168,64.016 102.464,65.232 101.088,65.84 L101.088,66 L106.592,66 Z M113.12,56.912 L106.944,56.912 L110.048,47.696 L113.12,56.912 Z M135.36,72.4 L135.36,72.24 C134.176,71.984 133.152,71.408 133.152,69.84 L133.152,65.968 C133.632,66.256 134.496,66.48 135.232,66.48 C140.064,66.48 143.296,62.512 143.296,56.72 C143.296,51.92 140.96,48.72 137.504,48.72 C135.744,48.72 133.952,49.584 133.152,51.376 L133.152,48.72 L125.504,50.896 L125.504,51.056 C126.656,51.408 127.072,52.08 127.072,53.616 L127.072,69.84 C127.072,71.152 126.4,71.856 125.504,72.24 L125.504,72.4 L135.36,72.4 Z M134.112,65.456 C133.76,65.456 133.44,65.36 133.152,65.104 L133.152,51.792 C133.344,51.536 133.664,51.408 133.952,51.408 C135.744,51.408 136.736,54.256 136.736,58.704 C136.736,62.736 135.712,65.456 134.112,65.456 Z M154.592,72.4 L154.592,72.24 C153.408,71.984 152.384,71.408 152.384,69.84 L152.384,65.968 C152.864,66.256 153.728,66.48 154.464,66.48 C159.296,66.48 162.528,62.512 162.528,56.72 C162.528,51.92 160.192,48.72 156.736,48.72 C154.976,48.72 153.184,49.584 152.384,51.376 L152.384,48.72 L144.736,50.896 L144.736,51.056 C145.888,51.408 146.304,52.08 146.304,53.616 L146.304,69.84 C146.304,71.152 145.632,71.856 144.736,72.24 L144.736,72.4 L154.592,72.4 Z M153.344,65.456 C152.992,65.456 152.672,65.36 152.384,65.104 L152.384,51.792 C152.576,51.536 152.896,51.408 153.184,51.408 C154.976,51.408 155.968,54.256 155.968,58.704 C155.968,62.736 154.944,65.456 153.344,65.456 Z M173.344,66 L173.344,65.84 C172.448,65.456 171.776,64.752 171.776,63.44 L171.776,42.64 L164.128,44.976 L164.128,45.136 C165.248,45.52 165.696,46.32 165.696,47.536 L165.696,63.44 C165.696,64.752 165.024,65.456 164.128,65.84 L164.128,66 L173.344,66 Z M179.232,48.464 C181.024,48.464 182.4,47.056 182.4,45.328 C182.4,43.568 181.024,42.16 179.232,42.16 C177.44,42.16 176.064,43.568 176.064,45.328 C176.064,47.056 177.44,48.464 179.232,48.464 Z M184,66 L184,65.84 C183.104,65.456 182.432,64.752 182.432,63.44 L182.432,48.72 L174.784,50.896 L174.784,51.056 C175.936,51.408 176.352,52.08 176.352,53.616 L176.352,63.44 C176.352,64.752 175.68,65.456 174.784,65.84 L174.784,66 L184,66 Z M192.896,66.48 C196.544,66.48 199.264,63.76 199.52,59.792 L199.328,59.728 C198.528,61.136 197.248,61.68 195.456,61.68 C191.616,61.68 189.952,58.224 189.952,55.504 C189.952,52.944 191.04,50.96 193.632,50.96 C195.488,50.96 197.024,52.4 197.216,55.856 L197.376,55.888 L199.808,50.096 C198.304,49.264 196.256,48.72 193.984,48.72 C188.928,48.72 185.44,52.624 185.44,57.904 C185.44,63.024 188.48,66.48 192.896,66.48 Z M213.184,66.48 C215.68,66.48 217.728,65.04 218.272,62 L217.952,61.968 C217.664,63.024 216.928,63.28 216.416,63.28 C215.776,63.28 215.2,62.8 215.2,61.68 L215.2,56.048 C215.2,51.76 213.28,48.72 208.576,48.72 C204.48,48.72 201.92,51.12 201.376,55.024 L201.6,55.088 C202.432,52.656 203.776,51.888 205.76,51.888 C208.416,51.888 209.12,53.648 209.12,55.664 L209.12,56.208 L207.008,56.656 C203.2,57.456 200.768,59.44 200.768,62.352 C200.768,64.496 202.304,66.48 204.96,66.48 C207.232,66.48 208.704,65.232 209.216,63.568 L209.312,63.6 C209.632,65.36 210.944,66.48 213.184,66.48 Z M208.224,63.28 C207.04,63.28 206.24,62.288 206.24,60.656 C206.24,58.96 206.848,57.616 208.672,57.264 L209.12,57.168 L209.12,62.928 C208.928,63.184 208.64,63.28 208.224,63.28 Z M224.864,66.48 C228.192,66.48 230.112,64.112 230.816,61.744 L230.528,61.648 C230.24,62.448 229.536,63.28 228.288,63.28 C227.168,63.28 226.56,62.384 226.56,61.008 L226.56,50.064 L229.504,50.064 L229.504,49.264 L226.56,49.264 L226.56,43.664 L226.528,43.664 C224,45.872 221.376,47.824 218.912,49.936 L218.912,50.096 L220.48,50.096 L220.48,61.872 C220.48,64.528 221.824,66.48 224.864,66.48 Z M244.192,66.48 C246.688,66.48 248.736,65.04 249.28,62 L248.96,61.968 C248.672,63.024 247.936,63.28 247.424,63.28 C246.784,63.28 246.208,62.8 246.208,61.68 L246.208,56.048 C246.208,51.76 244.288,48.72 239.584,48.72 C235.488,48.72 232.928,51.12 232.384,55.024 L232.608,55.088 C233.44,52.656 234.784,51.888 236.768,51.888 C239.424,51.888 240.128,53.648 240.128,55.664 L240.128,56.208 L238.016,56.656 C234.208,57.456 231.776,59.44 231.776,62.352 C231.776,64.496 233.312,66.48 235.968,66.48 C238.24,66.48 239.712,65.232 240.224,63.568 L240.32,63.6 C240.64,65.36 241.952,66.48 244.192,66.48 Z M239.232,63.28 C238.048,63.28 237.248,62.288 237.248,60.656 C237.248,58.96 237.856,57.616 239.68,57.264 L240.128,57.168 L240.128,62.928 C239.936,63.184 239.648,63.28 239.232,63.28 Z" id="ScuolaSuperiored'ArteApplicata" fill="#000000" fill-rule="nonzero"></path>
        <path d="M116.459216,29.523135 C121.692453,29.523135 125.166618,25.8290856 125.166618,21.1675472 C125.166618,18.3090566 124.111176,16.242148 120.461103,14.5710305 L114.876052,11.888447 C113.116981,11.0528882 112.545283,9.99744557 112.545283,8.9420029 C112.545283,7.84258345 113.424819,6.61123367 115.799565,6.61123367 C118.658055,6.61123367 121.604499,8.5462119 122.923803,12.5920755 L123.09971,12.5920755 L125.430479,7.22690856 C123.495501,6.12748911 120.065312,5.16 117.118868,5.16 C110.566328,5.16 108.279536,9.07393324 108.279536,12.680029 C108.279536,15.5824964 109.950653,18.2650798 113.160958,19.8042671 L118.658055,22.2669666 C120.549057,23.1465022 120.988824,24.1139913 120.988824,25.169434 C120.988824,26.9285051 119.581567,28.0279245 117.734543,28.0279245 C114.392308,28.0279245 110.830189,25.6531785 109.642816,21.0356168 L109.510885,21.0356168 L107.4,27.3242961 C109.774746,28.6875762 112.765167,29.523135 116.459216,29.523135 Z M123.143687,23.8941074 C123.011756,23.4983164 122.835849,23.1025254 122.571988,22.7507112 C122.00029,21.9591292 121.120755,21.2555007 119.889405,20.7277794 L114.436284,18.221103 C112.061538,17.1216836 110.698258,15.1867054 110.698258,12.9438897 C110.698258,12.3721916 110.786212,11.4486792 111.182003,10.5691437 C111.313933,11.0528882 111.533817,11.492656 111.841655,11.888447 C112.413353,12.7240058 113.248911,13.3836575 114.392308,13.9113788 L114.436284,13.9553556 L120.065312,16.5939623 C121.472569,17.2536139 122.440058,17.9572424 122.967779,18.7928012 C123.407547,19.4524528 123.627431,20.2880116 123.627431,21.4314078 C123.627431,22.3109434 123.451524,23.1465022 123.143687,23.8941074 Z M112.633237,16.4180552 L112.633237,13.6035414 L112.061538,13.1637736 L112.061538,15.846357 L112.633237,16.4180552 Z M113.996517,17.3415675 L113.996517,14.3071698 L113.424819,14.0433091 L113.424819,16.9897533 L113.996517,17.3415675 Z M115.359797,18.0012192 L115.359797,14.9668215 L114.788099,14.7029608 L114.788099,17.7373585 L115.359797,18.0012192 Z M116.723077,18.616894 L116.723077,15.5824964 L116.151379,15.3186357 L116.151379,18.3530334 L116.723077,18.616894 Z M118.086357,19.2325689 L118.086357,16.242148 L117.514659,15.9782874 L117.514659,18.9687083 L118.086357,19.2325689 Z M119.449637,19.8482438 L119.449637,16.9017997 L118.877939,16.637939 L118.877939,19.5843832 L119.449637,19.8482438 Z M120.812917,20.5078955 L120.812917,17.6494049 L120.241219,17.2975907 L120.241219,20.2440348 L120.812917,20.5078955 Z M122.176197,21.6512917 L122.176197,18.4849637 L121.604499,18.0451959 L121.604499,21.1235704 L122.176197,21.6512917 Z M132.466763,29.3472279 C134.841509,29.3472279 136.380697,27.7640639 136.952395,25.8730624 L136.952395,25.8730624 L136.952395,28.8634833 L144.824238,28.8634833 L144.824238,28.6875762 C143.900726,28.2917852 143.241074,27.8959942 143.241074,26.2248766 L143.241074,26.2248766 L143.241074,11.0528882 L135.852975,12.2402612 L135.852975,12.4161684 C136.688534,12.7679826 136.952395,13.5155878 136.952395,15.1867054 L136.952395,15.1867054 L136.952395,25.3453411 C136.732511,25.7411321 136.33672,26.0489695 135.721045,26.0489695 C134.709579,26.0489695 134.181858,25.4332946 134.181858,24.1579681 L134.181858,24.1579681 L134.181858,11.0528882 L126.310015,12.3282148 L126.310015,12.5041219 C127.497388,12.8559361 127.893179,13.5595646 127.893179,15.2306821 L127.893179,15.2306821 L127.893179,24.1139913 C127.893179,27.939971 129.828157,29.3472279 132.466763,29.3472279 Z M132.466763,27.3682729 C131.631205,27.3682729 130.971553,27.1923657 130.619739,26.7965747 C130.004064,26.1808999 129.872134,24.9935269 129.872134,24.1139913 L129.872134,24.1139913 L129.872134,15.2306821 C129.872134,14.7909144 129.872134,14.263193 129.78418,13.7794485 L129.78418,13.7794485 L132.202903,13.3836575 L132.202903,24.1579681 C132.202903,25.2573875 132.466763,26.1808999 133.038462,26.8405515 L133.038462,26.8405515 L133.390276,27.1923657 C133.126415,27.3242961 132.818578,27.3682729 132.466763,27.3682729 Z M141.262119,26.8845283 L138.93135,26.8845283 L138.93135,13.7354717 L141.262119,13.3836575 L141.262119,26.8845283 Z M131.837754,26.599128 L131.983019,26.5766909 L131.587228,25.961016 C131.27939,25.3893179 131.235414,24.9495501 131.235414,24.1579681 L131.235414,24.1579681 L131.235414,14.1312627 L130.707692,14.263193 L130.707692,24.1579681 C130.707692,25.0375036 130.795646,25.6971553 131.235414,26.356807 C131.367344,26.4887373 131.631205,26.6646444 131.983019,26.5766909 L131.837754,26.599128 Z M140.382583,26.2688534 L140.382583,14.1312627 L139.810885,14.2192163 L139.810885,26.2688534 L140.382583,26.2688534 Z M155.818433,35.46 L155.818433,35.3280697 C154.63106,35.064209 153.575617,34.4485341 153.575617,32.8213933 L153.575617,32.8213933 L153.575617,28.8195065 C154.059361,29.127344 154.938897,29.3472279 155.686502,29.3472279 C160.655878,29.3472279 163.998113,25.3013643 163.998113,19.3205225 C163.998113,14.3951234 161.57939,11.096865 158.017271,11.096865 C156.214224,11.096865 154.367199,11.9764006 153.575617,13.8234253 L153.575617,13.8234253 L153.575617,11.096865 L145.703774,13.3396807 L145.703774,13.471611 C146.891147,13.867402 147.286938,14.5270537 147.286938,16.1102177 L147.286938,16.1102177 L147.286938,32.8213933 C147.286938,34.1846734 146.627286,34.9322787 145.703774,35.3280697 L145.703774,35.3280697 L145.703774,35.46 L155.818433,35.46 Z M158.501016,26.7086212 C158.984761,25.3013643 159.204644,23.4543396 159.204644,21.3434543 C159.204644,18.7928012 158.940784,16.7258926 158.369086,15.1867054 C158.017271,14.3071698 157.62148,13.6475181 157.181713,13.1637736 C157.48955,13.07582 157.753411,13.07582 158.017271,13.07582 C159.160668,13.07582 160.040203,13.5595646 160.743832,14.5270537 C161.57939,15.6264731 162.019158,17.3415675 162.019158,19.3205225 C162.019158,20.5958491 161.843251,21.7392453 161.535414,22.794688 C161.227576,23.7621771 160.743832,24.6417126 160.172134,25.3013643 C159.688389,25.9170392 159.116691,26.356807 158.501016,26.7086212 Z M151.640639,33.481045 L149.221916,33.481045 C149.265893,33.3051379 149.265893,33.085254 149.265893,32.8213933 L149.265893,32.8213933 L149.265893,16.1102177 C149.265893,15.6704499 149.265893,15.054775 149.089985,14.3951234 L149.089985,14.3951234 L151.596662,13.6914949 L151.597349,33.0110432 C151.59941,33.1924474 151.607656,33.3491147 151.640639,33.481045 L151.640639,33.481045 Z M159.336575,25.4332946 C159.336575,25.4332946 159.996226,25.0375036 160.172134,24.5537591 C161.667344,20.2440348 160.831785,15.9343106 159.160668,14.0433091 C158.85283,13.6914949 158.281132,13.7794485 158.281132,13.7794485 C158.281132,13.7794485 159.292598,14.7469376 159.908273,16.7258926 C160.348041,18.2650798 160.787808,20.9036865 159.512482,24.8176197 L159.512482,24.8176197 L159.336575,25.4332946 Z M154.543106,28.2917852 C154.191292,28.2917852 153.839478,28.2038316 153.575617,27.939971 L153.575617,27.939971 L153.575617,14.263193 C153.751524,13.9993324 154.103338,13.867402 154.367199,13.867402 C156.214224,13.867402 157.225689,16.7698694 157.225689,21.3434543 C157.225689,25.5212482 156.214224,28.2917852 154.543106,28.2917852 Z M150.717126,32.9093469 L150.717126,14.5710305 L150.145428,14.7029608 L150.145428,32.9093469 L150.717126,32.9093469 Z M172.397678,29.3472279 C175.036284,29.3472279 178.466473,27.8520174 179.346009,22.7507112 L179.346009,22.7507112 L179.082148,22.7067344 C178.202612,23.9380842 176.971263,24.4218287 175.344122,24.4218287 C172.397678,24.4218287 170.418723,22.5308273 169.934978,18.7928012 L169.934978,18.7928012 L179.433962,18.7928012 C179.433962,12.5480987 175.432075,11.0528882 172.617562,11.0528882 C168.13193,11.0528882 164.877649,15.0107983 164.877649,20.5518723 C164.877649,26.3128302 168.615675,29.3472279 172.397678,29.3472279 Z M173.892888,17.7813353 L169.847025,17.7813353 C169.803048,17.4734978 169.803048,17.2096372 169.803048,16.8578229 C169.803048,13.9113788 170.550653,12.1523077 171.913933,12.1523077 C173.233237,12.1523077 173.892888,13.4276343 173.892888,17.7813353 L173.892888,17.7813353 Z M177.235123,16.8138462 L175.871843,16.8138462 C175.827866,15.6704499 175.78389,14.7469376 175.607983,13.9553556 L175.607983,13.9553556 L175.78389,14.0872859 C176.531495,14.7029608 177.015239,15.6264731 177.235123,16.8138462 L177.235123,16.8138462 Z M172.221771,26.8405515 C172.221771,26.8405515 172.661538,26.9724819 173.145283,26.5766909 L173.145283,26.5766909 L172.397678,26.4447605 C168.659652,25.7411321 167.86807,21.6952685 167.824093,21.4314078 C167.736139,20.9476633 167.648186,19.8482438 167.648186,19.8482438 C167.208418,20.2880116 167.384325,21.2115239 167.384325,21.2115239 C167.384325,21.2555007 167.428302,22.3549202 168.175907,23.8501306 C169.23135,25.8730624 170.550653,26.5766909 172.221771,26.8405515 Z M167.824093,16.1995455 L167.824093,16.8138462 C167.824093,17.2536139 167.86807,17.6933817 167.912046,18.1331495 C167.912046,18.3970102 167.912046,18.6608708 167.956023,18.8807547 C168,19.2325689 168.087954,20.0681277 168.483745,21.3434543 C168.615675,21.7392453 168.791582,22.1350363 168.967489,22.4868505 C169.319303,23.190479 169.759071,23.8501306 170.286792,24.4218287 C171.562119,25.6971553 173.32119,26.4007837 175.300145,26.4007837 C174.244702,27.2363425 173.057329,27.3682729 172.397678,27.3682729 C170.990421,27.3682729 169.627141,26.7965747 168.659652,25.7411321 C167.472279,24.5097823 166.856604,22.7067344 166.856604,20.5518723 C166.856604,18.9247315 167.208418,17.429521 167.824093,16.1981713 L167.824093,16.1995455 Z M190.428157,28.8634833 L190.428157,28.6875762 C189.240784,28.4237155 188.185341,27.8520174 188.185341,26.2248766 L188.185341,26.2248766 L188.185341,21.8711756 C188.185341,17.6494049 189.592598,16.637939 191.703483,16.637939 C192.714949,16.637939 193.198694,16.7698694 193.638462,17.03373 L193.638462,17.03373 L193.814369,17.03373 L193.814369,11.096865 L193.286647,11.096865 C190.472134,11.096865 188.317271,13.2517271 188.097388,19.1885922 L188.097388,19.1885922 L187.92148,19.1885922 L187.92148,11.096865 L180.313498,13.3396807 L180.313498,13.5155878 C181.412917,13.867402 181.896662,14.7469376 181.896662,16.5499855 L181.896662,16.5499855 L181.896662,26.2248766 C181.896662,27.5881567 181.23701,28.2917852 180.313498,28.6875762 L180.313498,28.6875762 L180.313498,28.8634833 L190.428157,28.8634833 Z M190.823948,14.7029608 L191.263716,13.9113788 C191.483599,13.6475181 191.659507,13.4276343 191.87939,13.2957039 L191.87939,13.2957039 L191.87939,14.658984 L191.703483,14.658984 C191.395646,14.658984 191.131785,14.658984 190.823948,14.7029608 L190.823948,14.7029608 Z M185.942525,26.8845283 L183.83164,26.8845283 C183.875617,26.6646444 183.875617,26.4447605 183.875617,26.2248766 L183.875617,26.2248766 L183.875617,16.5499855 C183.875617,15.7144267 183.787663,15.0107983 183.611756,14.4391001 L183.611756,14.4391001 L185.942525,13.7354717 L185.941173,21.3436085 C185.934111,22.2849163 185.90326,26.6882034 185.942525,26.8845283 L185.942525,26.8845283 Z M185.19492,26.2688534 L185.19492,14.5710305 L184.623222,14.7469376 L184.623222,26.2688534 L185.19492,26.2688534 Z" id="Super" fill="#000000" fill-rule="nonzero"></path>
    </g>
</svg>