<?xml version="1.0" encoding="utf-8"?>
<!-- Generator: Adobe Illustrator 24.1.2, SVG Export Plug-In . SVG Version: 6.00 Build 0)  -->
<svg version="1.1" id="Livello_1" xmlns="http://www.w3.org/2000/svg" xmlns:xlink="http://www.w3.org/1999/xlink" x="0px" y="0px"
	 viewBox="0 0 131 60" style="enable-background:new 0 0 131 60;" xml:space="preserve">
<style type="text/css">
	.st0{fill:#FFFFFF;}
	.st1{fill:#0000FF;}
	.st2{fill:#FF00FE;}
	.st3{fill:none;stroke:#FF00FE;stroke-width:1.0619;stroke-miterlimit:10;}
	.st4{fill:#FFFFFF;stroke:#0000FF;stroke-width:1.0807;stroke-miterlimit:10;}
	.st5{fill:#FFFFFF;stroke:#000000;stroke-width:1.0807;stroke-miterlimit:10;}
	.st6{fill:none;stroke:#FF00FE;stroke-width:0.9825;stroke-miterlimit:10;}
	.st7{fill:#FFFFFF;stroke:#0000FF;stroke-miterlimit:10;}
	.st8{fill:none;stroke:#FF00FE;stroke-width:0.5;stroke-miterlimit:10;}
	.st9{fill:none;stroke:#000000;stroke-width:1.0619;stroke-miterlimit:10;}
	.st10{fill:none;stroke:#000000;stroke-width:0.5;stroke-miterlimit:10;}
	.st11{fill:none;stroke:#FF00FE;stroke-width:0.5676;stroke-miterlimit:10;}
	.st12{fill:none;stroke:#000000;stroke-width:0.5676;stroke-miterlimit:10;}
	.st13{fill:none;stroke:#FFFFFF;stroke-width:1.0619;stroke-miterlimit:10;}
	.st14{fill:none;stroke:#FFFFFF;stroke-width:1.0807;stroke-miterlimit:10;}
</style>
<g>
	<path d="M14.4,32.36c0,3.14-2.34,5.61-5.86,5.61c-2.48,0-4.49-0.57-6.08-1.48l1.39-4.22h0.11c0.77,3.09,3.18,4.69,5.41,4.69
		c1.26,0,2.19-0.73,2.19-1.9c0-0.71-0.29-1.37-1.57-1.94l-3.67-1.68c-2.17-1.02-3.29-2.83-3.29-4.77c0-2.41,1.52-5.04,5.95-5.04
		c1.99,0,4.29,0.64,5.59,1.37l-1.59,3.62h-0.11c-0.88-2.72-2.85-4.02-4.77-4.02c-1.61,0-2.19,0.82-2.19,1.55
		c0,0.73,0.38,1.41,1.55,1.99l3.78,1.79C13.67,29.05,14.4,30.44,14.4,32.36z M13.35,32.53c0-0.77-0.14-1.32-0.44-1.78
		c-0.36-0.54-0.99-1.01-1.94-1.45l-0.01,0l-3.78-1.79L7.16,27.5c-0.76-0.37-1.32-0.82-1.71-1.36c-0.2-0.28-0.36-0.59-0.45-0.91
		c-0.28,0.61-0.33,1.22-0.33,1.6c0,1.51,0.92,2.81,2.52,3.56l3.66,1.67c0.82,0.37,1.41,0.82,1.8,1.36c0.17,0.24,0.3,0.5,0.39,0.77
		C13.24,33.69,13.35,33.12,13.35,32.53z M5.59,26.99l0.38,0.28v1.89l-0.38-0.38V26.99z M6.51,27.58l0.38,0.17v2.05l-0.38-0.23V27.58
		z M7.42,28.01l0.38,0.18v2.03l-0.38-0.16V28.01z M8.33,28.45l0.38,0.17v2.03l-0.38-0.17V28.45z M9.25,28.88l0.38,0.18v2l-0.38-0.17
		V28.88z M10.16,29.31l0.38,0.18v1.99l-0.38-0.17V29.31z M11.08,29.77l0.38,0.24v1.92l-0.38-0.2V29.77z M11.99,30.28l0.38,0.29v2.12
		l-0.38-0.35V30.28z"/>
	<path d="M27.62,37.46v0.11h-5.29v-1.99c-0.4,1.26-1.44,2.32-3.01,2.32c-1.79,0-3.08-0.95-3.08-3.52v-5.97
		c0-1.11-0.29-1.57-1.08-1.81v-0.11l5.29-0.86v8.81c0,0.84,0.38,1.26,1.04,1.26c0.42,0,0.69-0.2,0.84-0.46v-6.84
		c0-1.11-0.2-1.62-0.75-1.86v-0.11l4.96-0.8V35.8C26.53,36.93,27,37.2,27.62,37.46z M19.94,36.47c-0.08-0.07-0.16-0.15-0.24-0.24
		c-0.39-0.46-0.58-1.07-0.58-1.8v-7.24l-1.63,0.27c0.06,0.33,0.08,0.66,0.08,0.96v5.97c0,0.59,0.08,1.38,0.49,1.79
		c0.26,0.26,0.68,0.4,1.26,0.4C19.54,36.58,19.75,36.54,19.94,36.47z M18.71,35.62c0.08,0.17,0.27,0.41,0.27,0.41
		c-0.23,0.07-0.43-0.04-0.49-0.14c-0.3-0.43-0.37-0.9-0.37-1.47v-6.67l0.36-0.06v6.74C18.48,34.94,18.52,35.26,18.71,35.62z
		 M25.22,36.25c-0.01-0.14-0.02-0.29-0.02-0.44v-8.62l-1.55,0.25v8.81H25.22z M24.25,27.75l0.38-0.06v8.16h-0.38V27.75z"/>
	<path d="M33.47,37.55v2.69c0,1.08,0.71,1.48,1.53,1.66v0.11h-6.82V41.9c0.62-0.27,1.08-0.75,1.08-1.66V29.01
		c0-1.06-0.29-1.53-1.08-1.77v-0.11l5.29-1.5v1.84c0.55-1.24,1.79-1.84,3.01-1.84c2.39,0,4.01,2.21,4.01,5.53
		c0,4.01-2.24,6.75-5.58,6.75C34.4,37.9,33.81,37.75,33.47,37.55z M30.57,40.68h1.6c-0.02-0.14-0.03-0.29-0.03-0.44V27.38
		l-1.68,0.48c0.11,0.42,0.13,0.83,0.13,1.15v11.23C30.6,40.39,30.59,40.54,30.57,40.68L30.57,40.68z M31.18,28.06l0.38-0.11v12.32
		h-0.38V28.06z M33.47,36.95c0.2,0.18,0.42,0.24,0.66,0.24c1.11,0,1.81-1.88,1.81-4.67c0-3.08-0.69-5.05-1.93-5.05
		c-0.2,0-0.42,0.09-0.55,0.27V36.95z M35.91,27.02c0.29,0.32,0.57,0.77,0.79,1.36c0.39,1.04,0.58,2.43,0.58,4.14
		c0,1.41-0.17,2.64-0.49,3.6c0.43-0.23,0.81-0.54,1.14-0.94c0.38-0.47,0.68-1.04,0.89-1.69c0.22-0.7,0.34-1.49,0.34-2.34
		c0-1.33-0.3-2.47-0.85-3.23c-0.47-0.65-1.08-0.97-1.82-0.97C36.3,26.95,36.11,26.97,35.91,27.02z M37.73,29.4
		c-0.39-1.33-1.09-1.96-1.09-1.96s0.4-0.06,0.61,0.18c1.1,1.25,1.67,4.14,0.67,7.05c-0.12,0.34-0.57,0.6-0.57,0.6l0.14-0.42
		C38.32,32.22,38.04,30.44,37.73,29.4z"/>
	<path d="M51.19,33.44l0.18,0.04c-0.6,3.41-2.9,4.43-4.67,4.43c-2.54,0-5.05-2.04-5.05-5.91c0-3.72,2.19-6.37,5.2-6.37
		c1.88,0,4.56,1,4.56,5.2h-6.37c0.33,2.5,1.66,3.78,3.63,3.78C49.77,34.61,50.59,34.28,51.19,33.44z M48.63,35.94
		c-1.33-0.01-2.49-0.47-3.35-1.35c-0.37-0.37-0.66-0.81-0.9-1.28c-0.13-0.25-0.24-0.51-0.32-0.78c-0.26-0.85-0.32-1.41-0.35-1.64
		c-0.02-0.17-0.02-0.34-0.03-0.51c-0.02-0.29-0.04-0.58-0.06-0.87c0-0.15,0-0.29,0.01-0.43c-0.42,0.83-0.65,1.84-0.65,2.94
		c0,1.46,0.42,2.66,1.2,3.49c0.67,0.7,1.56,1.09,2.51,1.09C47.14,36.58,47.92,36.49,48.63,35.94z M46.69,35.95l0.5,0.1
		c-0.31,0.26-0.63,0.18-0.63,0.18c-1.11-0.17-1.98-0.67-2.69-2.02c-0.52-0.99-0.54-1.74-0.55-1.78c0,0-0.1-0.6,0.18-0.9
		c0,0,0.08,0.74,0.14,1.06C43.66,32.76,44.18,35.49,46.69,35.95z M44.95,29.52c0,0.22,0,0.42,0.02,0.62h2.74
		c0-2.92-0.46-3.78-1.35-3.78C45.45,26.36,44.95,27.53,44.95,29.52z M48.85,27.56c0.1,0.52,0.16,1.16,0.18,1.93h0.92
		c-0.16-0.8-0.49-1.42-0.99-1.84C48.93,27.62,48.89,27.59,48.85,27.56z"/>
	<path d="M61.52,25.62v4.01h-0.11c-0.29-0.18-0.62-0.27-1.31-0.27c-1.42,0-2.37,0.66-2.37,3.52v2.92c0,1.08,0.71,1.48,1.53,1.66
		v0.11h-6.82v-0.11c0.62-0.27,1.08-0.75,1.08-1.66v-6.51c0-1.2-0.33-1.79-1.08-2.04v-0.11l5.11-1.53v5.44h0.13
		c0.15-3.98,1.59-5.44,3.5-5.44H61.52z M56.23,27.4l-1.55,0.46c0.12,0.41,0.18,0.87,0.18,1.43v6.51c0,0.15-0.01,0.3-0.03,0.44h1.4
		c-0.02-0.14,0-3.85,0-3.85V27.4z M55.73,35.83h-0.38v-7.76l0.38-0.11V35.83z M60.24,27.1c-0.15,0.11-0.29,0.25-0.42,0.43
		c-0.09,0.13-0.2,0.3-0.29,0.53c0.18-0.02,0.38-0.03,0.57-0.03c0.05,0,0.09,0,0.14,0V27.1z"/>
	<g>
		<path class="st2" d="M83.23,30.64l-0.74,7.08H70.83V37.6c0.91-0.37,1.49-0.88,1.49-2.51V24c0-1.6-0.53-2.02-1.49-2.41v-0.12h7.85
			v0.12c-0.95,0.39-1.49,1.28-1.49,2.41v13.02h0.05c2.62,0,4.78-2.53,5.83-6.38H83.23z"/>
		<path class="st2" d="M97.08,34.82c-0.39,2.21-1.88,3.25-3.69,3.25c-1.63,0-2.58-0.81-2.81-2.09l-0.07-0.02
			c-0.37,1.21-1.44,2.11-3.09,2.11c-1.93,0-3.04-1.44-3.04-2.99c0-2.11,1.76-3.55,4.53-4.13l1.53-0.32v-0.39
			c0-1.46-0.51-2.74-2.44-2.74c-1.44,0-2.41,0.56-3.02,2.32l-0.16-0.05c0.39-2.83,2.25-4.57,5.22-4.57c3.41,0,4.81,2.21,4.81,5.32
			v4.09c0,0.81,0.42,1.16,0.88,1.16c0.37,0,0.91-0.19,1.11-0.95L97.08,34.82z M90.44,35.49v-4.18l-0.33,0.07
			c-1.32,0.26-1.76,1.23-1.76,2.46c0,1.18,0.58,1.9,1.44,1.9C90.1,35.75,90.3,35.68,90.44,35.49z"/>
		<path class="st2" d="M97.31,42.24c0.65-0.28,1.14-0.79,1.14-1.74V28.73c0-1.11-0.3-1.6-1.14-1.86v-0.12l5.55-1.58v1.93
			c0.58-1.3,1.88-1.93,3.16-1.93c2.51,0,4.2,2.32,4.2,5.8c0,4.2-2.34,7.08-5.85,7.08c-0.53,0-1.16-0.16-1.51-0.37v2.81
			c0,1.14,0.74,1.56,1.6,1.74v0.12h-7.15V42.24z M105.46,32.43c0-3.23-0.72-5.29-2.02-5.29c-0.21,0-0.44,0.09-0.58,0.28v9.66
			c0.21,0.19,0.44,0.26,0.7,0.26C104.72,37.32,105.46,35.35,105.46,32.43z"/>
		<path class="st2" d="M117.72,37.6v0.12h-6.69V37.6c0.65-0.28,1.14-0.79,1.14-1.74v-7.13c0-1.11-0.3-1.6-1.14-1.86v-0.12l5.55-1.58
			v10.68C116.58,36.81,117.07,37.32,117.72,37.6z M111.96,22.72c0-1.28,1-2.3,2.3-2.3c1.3,0,2.3,1.02,2.3,2.3
			c0,1.25-1,2.27-2.3,2.27C112.96,25,111.96,23.98,111.96,22.72z"/>
		<path class="st2" d="M118.53,36.42l1.39-3.13l0.14,0.02c0.58,2.04,2.21,3.74,3.99,3.74c1.3,0,1.67-0.72,1.67-1.3
			c0-0.51-0.26-0.93-0.81-1.16l-3.6-1.67c-1.67-0.79-2.27-2.04-2.27-3.44c0-1.9,1.51-4.29,5.2-4.29c1.49,0,3.04,0.42,4.29,1.35
			l-1.44,2.69l-0.14-0.02c-0.93-2.53-2.53-3.09-3.64-3.09c-1.11,0-1.53,0.49-1.53,1.07c0,0.49,0.3,0.97,0.98,1.3l3.41,1.58
			c1.53,0.72,2.16,1.88,2.16,3.27c0,2.34-1.65,4.74-5.13,4.74C121.41,38.07,119.73,37.39,118.53,36.42z"/>
	</g>
</g>
</svg>
