<?xml version="1.0" encoding="UTF-8"?>
<svg width="156px" height="149px" viewBox="0 0 156 149" version="1.1" xmlns="http://www.w3.org/2000/svg" xmlns:xlink="http://www.w3.org/1999/xlink">
    <title>logo-4-lines</title>
    <g id="logo-4-lines" stroke="none" stroke-width="1" fill="none" fill-rule="evenodd">
        <path d="M9.76,29.8 C14.848,29.8 18.24,26.216 18.24,21.672 C18.24,18.888 17.184,16.872 13.664,15.24 L8.192,12.648 C6.496,11.816 5.952,10.824 5.952,9.768 C5.952,8.712 6.784,7.528 9.12,7.528 C11.904,7.528 14.752,9.416 16.032,13.352 L16.192,13.352 L18.496,8.104 C16.608,7.048 13.28,6.12 10.4,6.12 C4,6.12 1.792,9.928 1.792,13.416 C1.792,16.232 3.424,18.856 6.56,20.328 L11.872,22.76 C13.728,23.592 14.144,24.552 14.144,25.576 C14.144,27.272 12.8,28.328 10.976,28.328 C7.744,28.328 4.256,26.024 3.136,21.544 L2.976,21.544 L0.96,27.656 C3.264,28.968 6.176,29.8 9.76,29.8 Z M27.232,29.64 C30.88,29.64 33.6,26.92 33.856,22.952 L33.664,22.888 C32.864,24.296 31.584,24.84 29.792,24.84 C25.952,24.84 24.288,21.384 24.288,18.664 C24.288,16.104 25.376,14.12 27.968,14.12 C29.824,14.12 31.36,15.56 31.552,19.016 L31.712,19.048 L34.144,13.256 C32.64,12.424 30.592,11.88 28.32,11.88 C23.264,11.88 19.776,15.784 19.776,21.064 C19.776,26.184 22.816,29.64 27.232,29.64 Z M40.96,29.64 C43.232,29.64 44.736,28.104 45.312,26.28 L45.312,29.16 L52.96,29.16 L52.96,29 C52.064,28.616 51.392,28.232 51.392,26.6 L51.392,11.88 L44.224,13.032 L44.224,13.192 C45.024,13.544 45.312,14.28 45.312,15.88 L45.312,25.768 C45.088,26.152 44.704,26.44 44.096,26.44 C43.136,26.44 42.592,25.832 42.592,24.616 L42.592,11.88 L34.944,13.128 L34.944,13.288 C36.096,13.64 36.512,14.312 36.512,15.912 L36.512,24.552 C36.512,28.264 38.368,29.64 40.96,29.64 Z M63.168,29.64 C68.256,29.64 71.936,26.024 71.936,20.744 C71.936,15.464 68.256,11.88 63.168,11.88 C58.08,11.88 54.4,15.464 54.4,20.744 C54.4,26.024 58.08,29.64 63.168,29.64 Z M63.168,28.36 C61.536,28.36 60.8,26.344 60.8,20.744 C60.8,15.144 61.536,13.128 63.168,13.128 C64.8,13.128 65.536,15.144 65.536,20.744 C65.536,26.344 64.8,28.36 63.168,28.36 Z M82.272,29.16 L82.272,29 C81.376,28.616 80.704,27.912 80.704,26.6 L80.704,5.8 L73.056,8.136 L73.056,8.296 C74.176,8.68 74.624,9.48 74.624,10.696 L74.624,26.6 C74.624,27.912 73.952,28.616 73.056,29 L73.056,29.16 L82.272,29.16 Z M96.128,29.64 C98.624,29.64 100.672,28.2 101.216,25.16 L100.896,25.128 C100.608,26.184 99.872,26.44 99.36,26.44 C98.72,26.44 98.144,25.96 98.144,24.84 L98.144,19.208 C98.144,14.92 96.224,11.88 91.52,11.88 C87.424,11.88 84.864,14.28 84.32,18.184 L84.544,18.248 C85.376,15.816 86.72,15.048 88.704,15.048 C91.36,15.048 92.064,16.808 92.064,18.824 L92.064,19.368 L89.952,19.816 C86.144,20.616 83.712,22.6 83.712,25.512 C83.712,27.656 85.248,29.64 87.904,29.64 C90.176,29.64 91.648,28.392 92.16,26.728 L92.256,26.76 C92.576,28.52 93.888,29.64 96.128,29.64 Z M91.168,26.44 C89.984,26.44 89.184,25.448 89.184,23.816 C89.184,22.12 89.792,20.776 91.616,20.424 L92.064,20.328 L92.064,26.088 C91.872,26.344 91.584,26.44 91.168,26.44 Z M7.136,103.64 C9.536,103.64 10.976,102.136 11.584,100.312 L11.584,103.16 L19.232,103.16 L19.232,103 C18.336,102.616 17.664,102.232 17.664,100.6 L17.664,79.8 L9.216,82.392 L9.216,82.552 C10.88,82.552 11.584,83.48 11.584,84.664 L11.584,86.52 C11.072,86.136 10.368,85.88 9.248,85.88 C4.768,85.88 1.44,89.816 1.44,95.384 C1.44,100.216 3.584,103.64 7.136,103.64 Z M10.432,100.44 C9.152,100.44 8,98.072 8,93.752 C8,89.912 8.96,86.968 10.656,86.968 C11.04,86.968 11.328,87.032 11.584,87.288 L11.584,99.768 C11.392,100.152 11.072,100.44 10.432,100.44 Z M24.096,89.4 L26.208,84.024 C26.368,83.576 26.496,82.872 26.496,82.456 C26.464,81.016 25.376,79.8 23.808,79.8 C22.272,79.8 21.184,81.016 21.152,82.456 C21.152,82.872 21.28,83.576 21.44,84.024 L23.552,89.4 L24.096,89.4 Z M33.44,103.16 L33.44,103 C32.192,102.36 31.392,101.176 32.096,99.096 L33.44,95.096 L40.32,95.096 L41.344,98.168 C42.208,100.792 41.696,102.264 40.256,103 L40.256,103.16 L51.712,103.16 L51.712,103 C50.336,102.392 49.696,101.272 49.088,99.544 L42.432,80.76 L37.12,80.76 L30.816,98.904 C30.016,101.176 29.312,102.392 27.936,103 L27.936,103.16 L33.44,103.16 Z M39.968,94.072 L33.792,94.072 L36.896,84.856 L39.968,94.072 Z M62.528,103.16 L62.528,103 C61.344,102.744 60.32,102.168 60.32,100.6 L60.32,96.376 C60.32,92.248 61.696,91.288 63.744,91.288 C64.736,91.288 65.216,91.416 65.632,91.672 L65.792,91.672 L65.792,85.88 L65.312,85.88 C62.56,85.88 60.48,87.992 60.256,93.752 L60.064,93.752 L60.064,85.88 L52.672,88.088 L52.672,88.248 C53.76,88.6 54.24,89.464 54.24,91.192 L54.24,100.6 C54.24,101.912 53.568,102.616 52.672,103 L52.672,103.16 L62.528,103.16 Z M73.184,103.64 C76.512,103.64 78.432,101.272 79.136,98.904 L78.848,98.808 C78.56,99.608 77.856,100.44 76.608,100.44 C75.488,100.44 74.88,99.544 74.88,98.168 L74.88,87.224 L77.824,87.224 L77.824,86.424 L74.88,86.424 L74.88,80.824 L74.848,80.824 C72.32,83.032 69.696,84.984 67.232,87.096 L67.232,87.256 L68.8,87.256 L68.8,99.032 C68.8,101.688 70.144,103.64 73.184,103.64 Z M87.232,103.64 C89.792,103.64 93.12,102.168 93.984,97.24 L93.728,97.176 C92.864,98.392 91.68,98.872 90.08,98.872 C87.232,98.872 85.312,97.016 84.832,93.4 L94.048,93.4 C94.048,87.32 90.176,85.88 87.456,85.88 C83.104,85.88 79.936,89.72 79.936,95.096 C79.936,100.696 83.552,103.64 87.232,103.64 Z M88.704,92.408 L84.736,92.408 C84.704,92.12 84.704,91.832 84.704,91.512 C84.704,88.632 85.44,86.936 86.752,86.936 C88.032,86.936 88.704,88.184 88.704,92.408 Z M6.144,140.16 L6.144,140 C4.896,139.36 4.096,138.176 4.8,136.096 L6.144,132.096 L13.024,132.096 L14.048,135.168 C14.912,137.792 14.4,139.264 12.96,140 L12.96,140.16 L24.416,140.16 L24.416,140 C23.04,139.392 22.4,138.272 21.792,136.544 L15.136,117.76 L9.824,117.76 L3.52,135.904 C2.72,138.176 2.016,139.392 0.64,140 L0.64,140.16 L6.144,140.16 Z M12.672,131.072 L6.496,131.072 L9.6,121.856 L12.672,131.072 Z M34.912,146.56 L34.912,146.4 C33.728,146.144 32.704,145.568 32.704,144 L32.704,140.128 C33.184,140.416 34.048,140.64 34.784,140.64 C39.616,140.64 42.848,136.672 42.848,130.88 C42.848,126.08 40.512,122.88 37.056,122.88 C35.296,122.88 33.504,123.744 32.704,125.536 L32.704,122.88 L25.056,125.056 L25.056,125.216 C26.208,125.568 26.624,126.24 26.624,127.776 L26.624,144 C26.624,145.312 25.952,146.016 25.056,146.4 L25.056,146.56 L34.912,146.56 Z M33.664,139.616 C33.312,139.616 32.992,139.52 32.704,139.264 L32.704,125.952 C32.896,125.696 33.216,125.568 33.504,125.568 C35.296,125.568 36.288,128.416 36.288,132.864 C36.288,136.896 35.264,139.616 33.664,139.616 Z M54.144,146.56 L54.144,146.4 C52.96,146.144 51.936,145.568 51.936,144 L51.936,140.128 C52.416,140.416 53.28,140.64 54.016,140.64 C58.848,140.64 62.08,136.672 62.08,130.88 C62.08,126.08 59.744,122.88 56.288,122.88 C54.528,122.88 52.736,123.744 51.936,125.536 L51.936,122.88 L44.288,125.056 L44.288,125.216 C45.44,125.568 45.856,126.24 45.856,127.776 L45.856,144 C45.856,145.312 45.184,146.016 44.288,146.4 L44.288,146.56 L54.144,146.56 Z M52.896,139.616 C52.544,139.616 52.224,139.52 51.936,139.264 L51.936,125.952 C52.128,125.696 52.448,125.568 52.736,125.568 C54.528,125.568 55.52,128.416 55.52,132.864 C55.52,136.896 54.496,139.616 52.896,139.616 Z M72.896,140.16 L72.896,140 C72,139.616 71.328,138.912 71.328,137.6 L71.328,116.8 L63.68,119.136 L63.68,119.296 C64.8,119.68 65.248,120.48 65.248,121.696 L65.248,137.6 C65.248,138.912 64.576,139.616 63.68,140 L63.68,140.16 L72.896,140.16 Z M78.784,122.624 C80.576,122.624 81.952,121.216 81.952,119.488 C81.952,117.728 80.576,116.32 78.784,116.32 C76.992,116.32 75.616,117.728 75.616,119.488 C75.616,121.216 76.992,122.624 78.784,122.624 Z M83.552,140.16 L83.552,140 C82.656,139.616 81.984,138.912 81.984,137.6 L81.984,122.88 L74.336,125.056 L74.336,125.216 C75.488,125.568 75.904,126.24 75.904,127.776 L75.904,137.6 C75.904,138.912 75.232,139.616 74.336,140 L74.336,140.16 L83.552,140.16 Z M92.448,140.64 C96.096,140.64 98.816,137.92 99.072,133.952 L98.88,133.888 C98.08,135.296 96.8,135.84 95.008,135.84 C91.168,135.84 89.504,132.384 89.504,129.664 C89.504,127.104 90.592,125.12 93.184,125.12 C95.04,125.12 96.576,126.56 96.768,130.016 L96.928,130.048 L99.36,124.256 C97.856,123.424 95.808,122.88 93.536,122.88 C88.48,122.88 84.992,126.784 84.992,132.064 C84.992,137.184 88.032,140.64 92.448,140.64 Z M112.736,140.64 C115.232,140.64 117.28,139.2 117.824,136.16 L117.504,136.128 C117.216,137.184 116.48,137.44 115.968,137.44 C115.328,137.44 114.752,136.96 114.752,135.84 L114.752,130.208 C114.752,125.92 112.832,122.88 108.128,122.88 C104.032,122.88 101.472,125.28 100.928,129.184 L101.152,129.248 C101.984,126.816 103.328,126.048 105.312,126.048 C107.968,126.048 108.672,127.808 108.672,129.824 L108.672,130.368 L106.56,130.816 C102.752,131.616 100.32,133.6 100.32,136.512 C100.32,138.656 101.856,140.64 104.512,140.64 C106.784,140.64 108.256,139.392 108.768,137.728 L108.864,137.76 C109.184,139.52 110.496,140.64 112.736,140.64 Z M107.776,137.44 C106.592,137.44 105.792,136.448 105.792,134.816 C105.792,133.12 106.4,131.776 108.224,131.424 L108.672,131.328 L108.672,137.088 C108.48,137.344 108.192,137.44 107.776,137.44 Z M124.416,140.64 C127.744,140.64 129.664,138.272 130.368,135.904 L130.08,135.808 C129.792,136.608 129.088,137.44 127.84,137.44 C126.72,137.44 126.112,136.544 126.112,135.168 L126.112,124.224 L129.056,124.224 L129.056,123.424 L126.112,123.424 L126.112,117.824 L126.08,117.824 C123.552,120.032 120.928,121.984 118.464,124.096 L118.464,124.256 L120.032,124.256 L120.032,136.032 C120.032,138.688 121.376,140.64 124.416,140.64 Z M143.744,140.64 C146.24,140.64 148.288,139.2 148.832,136.16 L148.512,136.128 C148.224,137.184 147.488,137.44 146.976,137.44 C146.336,137.44 145.76,136.96 145.76,135.84 L145.76,130.208 C145.76,125.92 143.84,122.88 139.136,122.88 C135.04,122.88 132.48,125.28 131.936,129.184 L132.16,129.248 C132.992,126.816 134.336,126.048 136.32,126.048 C138.976,126.048 139.68,127.808 139.68,129.824 L139.68,130.368 L137.568,130.816 C133.76,131.616 131.328,133.6 131.328,136.512 C131.328,138.656 132.864,140.64 135.52,140.64 C137.792,140.64 139.264,139.392 139.776,137.728 L139.872,137.76 C140.192,139.52 141.504,140.64 143.744,140.64 Z M138.784,137.44 C137.6,137.44 136.8,136.448 136.8,134.816 C136.8,133.12 137.408,131.776 139.232,131.424 L139.68,131.328 L139.68,137.088 C139.488,137.344 139.2,137.44 138.784,137.44 Z" id="Scuolad'ArteApplicata" fill="#000000" fill-rule="nonzero"></path>
        <path d="M9.53921626,67.411902 C14.7724528,67.411902 18.2466183,63.7178527 18.2466183,59.0563142 C18.2466183,56.1978236 17.1911756,54.1309151 13.541103,52.4597975 L7.95605225,49.7772141 C6.19698113,48.9416553 5.62528302,47.8862126 5.62528302,46.8307699 C5.62528302,45.7313505 6.50481858,44.5000007 8.87956459,44.5000007 C11.7380552,44.5000007 14.6844993,46.4349789 16.0038026,50.4808425 L16.1797097,50.4808425 L18.510479,45.1156756 C16.5755007,44.0162561 13.145312,43.048767 10.1988679,43.048767 C3.64632801,43.048767 1.35953556,46.9627003 1.35953556,50.5687961 C1.35953556,53.4712634 3.03065312,56.1538469 6.24095791,57.6930341 L11.7380552,60.1557337 C13.6290566,61.0352692 14.0688244,62.0027583 14.0688244,63.058201 C14.0688244,64.8172721 12.6615675,65.9166916 10.8145428,65.9166916 C7.47230769,65.9166916 3.91018868,63.5419456 2.72281567,58.9243839 L2.59088534,58.9243839 L0.48,65.2130631 C2.85474601,66.5763432 5.84516691,67.411902 9.53921626,67.411902 Z M16.2236865,61.7828744 C16.0917562,61.3870834 15.9158491,60.9912924 15.6519884,60.6394782 C15.0802903,59.8478962 14.2007547,59.1442678 12.9694049,58.6165464 L7.51628447,56.1098701 C5.14153846,55.0104506 3.77825835,53.0754724 3.77825835,50.8326567 C3.77825835,50.2609586 3.8662119,49.3374463 4.2620029,48.4579107 C4.39393324,48.9416553 4.61381713,49.3814231 4.92165457,49.7772141 C5.49335269,50.6127728 6.32891147,51.2724245 7.47230769,51.8001458 L7.51628447,51.8441226 L13.145312,54.4827293 C14.5525689,55.142381 15.5200581,55.8460094 16.0477794,56.6815682 C16.4875472,57.3412199 16.7074311,58.1767786 16.7074311,59.3201749 C16.7074311,60.1997104 16.5315239,61.0352692 16.2236865,61.7828744 Z M5.71323657,54.3068222 L5.71323657,51.4923084 L5.14153846,51.0525406 L5.14153846,53.7351241 L5.71323657,54.3068222 Z M7.07651669,55.2303345 L7.07651669,52.1959368 L6.50481858,51.9320762 L6.50481858,54.8785203 L7.07651669,55.2303345 Z M8.43979681,55.8899862 L8.43979681,52.8555885 L7.86809869,52.5917278 L7.86809869,55.6261255 L8.43979681,55.8899862 Z M9.80307692,56.5056611 L9.80307692,53.4712634 L9.23137881,53.2074027 L9.23137881,56.2418004 L9.80307692,56.5056611 Z M11.166357,57.121336 L11.166357,54.1309151 L10.5946589,53.8670544 L10.5946589,56.8574753 L11.166357,57.121336 Z M12.5296372,57.7370109 L12.5296372,54.7905667 L11.957939,54.5267061 L11.957939,57.4731502 L12.5296372,57.7370109 Z M13.8929173,58.3966625 L13.8929173,55.538172 L13.3212192,55.1863577 L13.3212192,58.1328019 L13.8929173,58.3966625 Z M15.2561974,59.5400588 L15.2561974,56.3737308 L14.6844993,55.933963 L14.6844993,59.0123374 L15.2561974,59.5400588 Z M25.5467634,67.2359949 C27.9215094,67.2359949 29.4606967,65.6528309 30.0323948,63.7618294 L30.0323948,63.7618294 L30.0323948,66.7522503 L37.904238,66.7522503 L37.904238,66.5763432 C36.9807257,66.1805522 36.321074,65.7847612 36.321074,64.1136437 L36.321074,64.1136437 L36.321074,48.9416553 L28.9329753,50.1290283 L28.9329753,50.3049354 C29.7685341,50.6567496 30.0323948,51.4043548 30.0323948,53.0754724 L30.0323948,53.0754724 L30.0323948,63.2341081 C29.8125109,63.6298991 29.4167199,63.9377366 28.801045,63.9377366 C27.7895791,63.9377366 27.2618578,63.3220617 27.2618578,62.0467351 L27.2618578,62.0467351 L27.2618578,48.9416553 L19.3900145,50.2169818 L19.3900145,50.392889 C20.5773875,50.7447032 20.9731785,51.4483316 20.9731785,53.1194492 L20.9731785,53.1194492 L20.9731785,62.0027583 C20.9731785,65.828738 22.9081567,67.2359949 25.5467634,67.2359949 Z M25.5467634,65.2570399 C24.7112046,65.2570399 24.051553,65.0811328 23.6997388,64.6853418 C23.0840639,64.0696669 22.9521335,62.8822939 22.9521335,62.0027583 L22.9521335,62.0027583 L22.9521335,53.1194492 C22.9521335,52.6796814 22.9521335,52.1519601 22.86418,51.6682155 L22.86418,51.6682155 L25.2829028,51.2724245 L25.2829028,62.0467351 C25.2829028,63.1461546 25.5467634,64.0696669 26.1184615,64.7293186 L26.1184615,64.7293186 L26.4702758,65.0811328 C26.2064151,65.2130631 25.8985776,65.2570399 25.5467634,65.2570399 Z M34.342119,64.7732953 L32.0113498,64.7732953 L32.0113498,51.6242387 L34.342119,51.2724245 L34.342119,64.7732953 Z M24.9177545,64.487895 L25.0630189,64.4654579 L24.6672279,63.849783 C24.3593904,63.2780849 24.3154136,62.8383171 24.3154136,62.0467351 L24.3154136,62.0467351 L24.3154136,52.0200297 L23.7876923,52.1519601 L23.7876923,62.0467351 C23.7876923,62.9262707 23.8756459,63.5859223 24.3154136,64.245574 C24.447344,64.3775043 24.7112046,64.5534114 25.0630189,64.4654579 L24.9177545,64.487895 Z M33.4625835,64.1576204 L33.4625835,52.0200297 L32.8908853,52.1079833 L32.8908853,64.1576204 L33.4625835,64.1576204 Z M48.8984325,73.348767 L48.8984325,73.2168367 C47.7110595,72.952976 46.6556168,72.3373011 46.6556168,70.7101604 L46.6556168,70.7101604 L46.6556168,66.7082736 C47.1393614,67.016111 48.018897,67.2359949 48.7665022,67.2359949 C53.7358781,67.2359949 57.0781132,63.1901313 57.0781132,57.2092895 C57.0781132,52.2838904 54.6593904,48.9856321 51.0972714,48.9856321 C49.2942235,48.9856321 47.4471988,49.8651676 46.6556168,51.7121923 L46.6556168,51.7121923 L46.6556168,48.9856321 L38.7837736,51.2284477 L38.7837736,51.3603781 C39.9711466,51.7561691 40.3669376,52.4158207 40.3669376,53.9989847 L40.3669376,53.9989847 L40.3669376,70.7101604 C40.3669376,72.0734405 39.7072859,72.8210457 38.7837736,73.2168367 L38.7837736,73.2168367 L38.7837736,73.348767 L48.8984325,73.348767 Z M51.581016,64.5973882 C52.0647605,63.1901313 52.2846444,61.3431067 52.2846444,59.2322213 C52.2846444,56.6815682 52.0207837,54.6146596 51.4490856,53.0754724 C51.0972714,52.1959368 50.7014804,51.5362852 50.2617126,51.0525406 C50.5695501,50.9645871 50.8334107,50.9645871 51.0972714,50.9645871 C52.2406676,50.9645871 53.1202032,51.4483316 53.8238316,52.4158207 C54.6593904,53.5152402 55.0991582,55.2303345 55.0991582,57.2092895 C55.0991582,58.4846161 54.9232511,59.6280123 54.6154136,60.683455 C54.3075762,61.6509441 53.8238316,62.5304797 53.2521335,63.1901313 C52.768389,63.8058062 52.1966909,64.245574 51.581016,64.5973882 Z M44.7206386,71.369812 L42.3019158,71.369812 C42.3458926,71.1939049 42.3458926,70.974021 42.3458926,70.7101604 L42.3458926,70.7101604 L42.3458926,53.9989847 C42.3458926,53.559217 42.3458926,52.9435421 42.1699855,52.2838904 L42.1699855,52.2838904 L44.6766618,51.580262 L44.677349,70.8998102 C44.6794104,71.0812144 44.687656,71.2378817 44.7206386,71.369812 L44.7206386,71.369812 Z M52.4165747,63.3220617 C52.4165747,63.3220617 53.0762264,62.9262707 53.2521335,62.4425261 C54.747344,58.1328019 53.9117852,53.8230776 52.2406676,51.9320762 C51.9328302,51.580262 51.3611321,51.6682155 51.3611321,51.6682155 C51.3611321,51.6682155 52.372598,52.6357046 52.9882729,54.6146596 C53.4280406,56.1538469 53.8678084,58.7924535 52.5924819,62.7063868 L52.5924819,62.7063868 L52.4165747,63.3220617 Z M47.623106,66.1805522 C47.2712917,66.1805522 46.9194775,66.0925987 46.6556168,65.828738 L46.6556168,65.828738 L46.6556168,52.1519601 C46.8315239,51.8880994 47.1833382,51.7561691 47.4471988,51.7561691 C49.2942235,51.7561691 50.3056894,54.6586364 50.3056894,59.2322213 C50.3056894,63.4100152 49.2942235,66.1805522 47.623106,66.1805522 Z M43.7971263,70.7981139 L43.7971263,52.4597975 L43.2254282,52.5917278 L43.2254282,70.7981139 L43.7971263,70.7981139 Z M65.4776778,67.2359949 C68.1162845,67.2359949 71.5464731,65.7407845 72.4260087,60.6394782 L72.4260087,60.6394782 L72.162148,60.5955014 C71.2826125,61.8268512 70.0512627,62.3105958 68.4241219,62.3105958 C65.4776778,62.3105958 63.4987228,60.4195943 63.0149782,56.6815682 L63.0149782,56.6815682 L72.5139623,56.6815682 C72.5139623,50.4368657 68.5120755,48.9416553 65.6975617,48.9416553 C61.2119303,48.9416553 57.9576488,52.8995653 57.9576488,58.4406393 C57.9576488,64.2015972 61.6956749,67.2359949 65.4776778,67.2359949 Z M66.9728882,55.6701023 L62.9270247,55.6701023 C62.8830479,55.3622649 62.8830479,55.0984042 62.8830479,54.74659 C62.8830479,51.8001458 63.6306531,50.0410747 64.9939332,50.0410747 C66.3132366,50.0410747 66.9728882,51.3164013 66.9728882,55.6701023 L66.9728882,55.6701023 Z M70.3151234,54.7026132 L68.9518433,54.7026132 C68.9078665,53.559217 68.8638897,52.6357046 68.6879826,51.8441226 L68.6879826,51.8441226 L68.8638897,51.976053 C69.6114949,52.5917278 70.0952395,53.5152402 70.3151234,54.7026132 L70.3151234,54.7026132 Z M65.3017707,64.7293186 C65.3017707,64.7293186 65.7415385,64.8612489 66.225283,64.4654579 L66.225283,64.4654579 L65.4776778,64.3335276 C61.7396517,63.6298991 60.9480697,59.5840355 60.9040929,59.3201749 C60.8161393,58.8364303 60.7281858,57.7370109 60.7281858,57.7370109 C60.288418,58.1767786 60.4643251,59.100291 60.4643251,59.100291 C60.4643251,59.1442678 60.5083019,60.2436872 61.2559071,61.7388977 C62.3113498,63.7618294 63.6306531,64.4654579 65.3017707,64.7293186 Z M60.9040929,54.0883126 L60.9040929,54.7026132 C60.9040929,55.142381 60.9480697,55.5821487 60.9920464,56.0219165 C60.9920464,56.2857772 60.9920464,56.5496379 61.0360232,56.7695218 C61.08,57.121336 61.1679536,57.9568948 61.5637446,59.2322213 C61.6956749,59.6280123 61.871582,60.0238033 62.0474891,60.3756175 C62.3993033,61.079246 62.8390711,61.7388977 63.3667925,62.3105958 C64.642119,63.5859223 66.4011901,64.2895508 68.3801451,64.2895508 C67.3247025,65.1251096 66.1373295,65.2570399 65.4776778,65.2570399 C64.0704209,65.2570399 62.7071408,64.6853418 61.7396517,63.6298991 C60.5522787,62.3985493 59.9366038,60.5955014 59.9366038,58.4406393 C59.9366038,56.8134985 60.288418,55.3182881 60.9040929,54.0869383 L60.9040929,54.0883126 Z M83.5081567,66.7522503 L83.5081567,66.5763432 C82.3207837,66.3124826 81.2653411,65.7407845 81.2653411,64.1136437 L81.2653411,64.1136437 L81.2653411,59.7599427 C81.2653411,55.538172 82.672598,54.5267061 84.7834833,54.5267061 C85.7949492,54.5267061 86.2786938,54.6586364 86.7184615,54.9224971 L86.7184615,54.9224971 L86.8943687,54.9224971 L86.8943687,48.9856321 L86.3666473,48.9856321 C83.5521335,48.9856321 81.3972714,51.1404942 81.1773875,57.0773592 L81.1773875,57.0773592 L81.0014804,57.0773592 L81.0014804,48.9856321 L73.3934978,51.2284477 L73.3934978,51.4043548 C74.4929173,51.7561691 74.9766618,52.6357046 74.9766618,54.4387525 L74.9766618,54.4387525 L74.9766618,64.1136437 C74.9766618,65.4769238 74.3170102,66.1805522 73.3934978,66.5763432 L73.3934978,66.5763432 L73.3934978,66.7522503 L83.5081567,66.7522503 Z M83.9039478,52.5917278 L84.3437155,51.8001458 C84.5635994,51.5362852 84.7395065,51.3164013 84.9593904,51.184471 L84.9593904,51.184471 L84.9593904,52.5477511 L84.7834833,52.5477511 C84.4756459,52.5477511 84.2117852,52.5477511 83.9039478,52.5917278 L83.9039478,52.5917278 Z M79.0225254,64.7732953 L76.9116401,64.7732953 C76.9556168,64.5534114 76.9556168,64.3335276 76.9556168,64.1136437 L76.9556168,64.1136437 L76.9556168,54.4387525 C76.9556168,53.6031937 76.8676633,52.8995653 76.6917562,52.3278672 L76.6917562,52.3278672 L79.0225254,51.6242387 L79.0211732,59.2323756 C79.0141115,60.1736834 78.9832604,64.5769704 79.0225254,64.7732953 L79.0225254,64.7732953 Z M78.2749202,64.1576204 L78.2749202,52.4597975 L77.7032221,52.6357046 L77.7032221,64.1576204 L78.2749202,64.1576204 Z" id="Super" fill="#000000" fill-rule="nonzero"></path>
        <path d="M92.36,48.464 C94.152,48.464 95.528,47.056 95.528,45.328 C95.528,43.568 94.152,42.16 92.36,42.16 C90.568,42.16 89.192,43.568 89.192,45.328 C89.192,47.056 90.568,48.464 92.36,48.464 Z M97.128,66 L97.128,65.84 C96.232,65.456 95.56,64.752 95.56,63.44 L95.56,48.72 L87.912,50.896 L87.912,51.056 C89.064,51.408 89.48,52.08 89.48,53.616 L89.48,63.44 C89.48,64.752 88.808,65.456 87.912,65.84 L87.912,66 L97.128,66 Z M107.336,66.48 C112.424,66.48 116.104,62.864 116.104,57.584 C116.104,52.304 112.424,48.72 107.336,48.72 C102.248,48.72 98.568,52.304 98.568,57.584 C98.568,62.864 102.248,66.48 107.336,66.48 Z M107.336,65.2 C105.704,65.2 104.968,63.184 104.968,57.584 C104.968,51.984 105.704,49.968 107.336,49.968 C108.968,49.968 109.704,51.984 109.704,57.584 C109.704,63.184 108.968,65.2 107.336,65.2 Z M126.952,66 L126.952,65.84 C125.768,65.584 124.744,65.008 124.744,63.44 L124.744,59.216 C124.744,55.088 126.12,54.128 128.168,54.128 C129.16,54.128 129.64,54.256 130.056,54.512 L130.216,54.512 L130.216,48.72 L129.736,48.72 C126.984,48.72 124.904,50.832 124.68,56.592 L124.488,56.592 L124.488,48.72 L117.096,50.928 L117.096,51.088 C118.184,51.44 118.664,52.304 118.664,54.032 L118.664,63.44 C118.664,64.752 117.992,65.456 117.096,65.84 L117.096,66 L126.952,66 Z M138.632,66.48 C141.192,66.48 144.52,65.008 145.384,60.08 L145.128,60.016 C144.264,61.232 143.08,61.712 141.48,61.712 C138.632,61.712 136.712,59.856 136.232,56.24 L145.448,56.24 C145.448,50.16 141.576,48.72 138.856,48.72 C134.504,48.72 131.336,52.56 131.336,57.936 C131.336,63.536 134.952,66.48 138.632,66.48 Z M140.104,55.248 L136.136,55.248 C136.104,54.96 136.104,54.672 136.104,54.352 C136.104,51.472 136.84,49.776 138.152,49.776 C139.432,49.776 140.104,51.024 140.104,55.248 Z" id="ScuolaSuperiored'ArteApplicata" fill="#000000" fill-rule="nonzero"></path>
    </g>
</svg>